# Blender v2.79 (sub 0) OBJ File: 'Ruins.blend'
# www.blender.org
o Block_3_Model_Cube.073
v -0.213791 -0.113560 0.243310
v -0.214292 -0.092914 0.265741
v -0.235175 -0.092505 0.243402
v -0.214508 0.095170 0.266296
v -0.214027 0.116204 0.243546
v -0.235334 0.094607 0.243464
v -0.212895 -0.111262 -0.242579
v -0.234023 -0.092056 -0.243119
v -0.213768 -0.092389 -0.264562
v -0.214019 0.116183 -0.243703
v -0.213980 0.094642 -0.265106
v -0.234257 0.094187 -0.243210
v 0.213533 -0.112472 0.242886
v 0.233422 -0.091756 0.242654
v 0.214389 -0.092844 0.265562
v 0.214027 0.115777 0.243379
v 0.213792 0.094287 0.264031
v 0.235328 0.094540 0.243397
v 0.214038 -0.113764 -0.243555
v 0.214282 -0.092737 -0.265454
v 0.233554 -0.091807 -0.242870
v 0.214116 0.116006 -0.243634
v 0.234666 0.094282 -0.243304
v 0.213791 0.094286 -0.264194
v 0.000083 -0.113377 -0.243404
v 0.000083 -0.092685 -0.265272
v 0.000083 0.117681 -0.244341
v 0.000083 0.095180 -0.266368
v 0.000083 -0.114081 0.243530
v 0.000083 -0.091249 0.261640
v 0.000083 0.116631 0.243740
v 0.000083 0.095387 0.266704
v -0.214121 -0.114348 -0.000083
v -0.235016 -0.092449 -0.000083
v -0.213818 0.115655 -0.000083
v -0.235416 0.094655 -0.000083
v 0.214330 -0.114450 -0.000083
v 0.235723 -0.092672 -0.000083
v 0.213790 0.115185 -0.000083
v 0.235883 0.094779 -0.000083
v 0.000083 0.103521 -0.000083
v 0.000083 -0.114787 -0.000083
vt 0.799784 0.836081
vt 0.799846 0.811468
vt 0.827766 0.811638
vt 0.827771 0.836166
vt 0.932801 0.751228
vt 0.932806 0.772724
vt 0.908148 0.772543
vt 0.908242 0.751135
vt 0.917455 0.709064
vt 0.917225 0.730600
vt 0.889170 0.730302
vt 0.889499 0.708844
vt 0.715408 0.836111
vt 0.715445 0.860681
vt 0.687459 0.860742
vt 0.687404 0.836147
vt 0.923260 0.356956
vt 0.923265 0.335454
vt 0.951082 0.335649
vt 0.951026 0.356834
vt 0.768439 0.836002
vt 0.746942 0.836073
vt 0.746855 0.811581
vt 0.768353 0.811417
vt 0.907673 0.747800
vt 0.904873 0.750541
vt 0.907483 0.775960
vt 0.904666 0.773083
vt 0.951559 0.359969
vt 0.954285 0.357406
vt 0.951699 0.332340
vt 0.954432 0.335122
vt 0.957923 0.747865
vt 0.960600 0.750553
vt 0.957353 0.751110
vt 0.958064 0.775778
vt 0.957413 0.772442
vt 0.960828 0.772971
vt 0.945852 0.706281
vt 0.948582 0.709027
vt 0.945230 0.709547
vt 0.945606 0.734024
vt 0.945024 0.730733
vt 0.948294 0.731291
vt 0.923286 0.360463
vt 0.895229 0.360463
vt 0.895213 0.357004
vt 0.923291 0.331960
vt 0.771863 0.835996
vt 0.771831 0.860443
vt 0.768474 0.860547
vt 0.743400 0.836078
vt 0.743361 0.811551
vt 0.917508 0.705532
vt 0.917212 0.734084
vt 0.889130 0.733771
vt 0.932801 0.747800
vt 0.932817 0.776408
vt 0.743429 0.860613
vt 0.746975 0.860604
vt 0.771869 0.811439
vt 0.715385 0.811567
vt 0.687418 0.811571
vt 0.799698 0.860689
vt 0.827666 0.860742
vt 0.889484 0.705532
vt 0.895136 0.331946
vt 0.895179 0.335450
vn -0.0009 -1.0000 -0.0012
vn 0.3947 -0.9188 0.0011
vn 0.3540 -0.8725 0.3367
vn 0.0014 -0.9177 0.3973
vn 0.0023 -0.3754 0.9268
vn 0.0032 0.3884 0.9215
vn -0.3573 0.3525 0.8649
vn -0.3490 -0.3436 0.8718
vn 0.9275 -0.3736 0.0005
vn 0.9222 0.3867 -0.0005
vn 0.8763 0.3427 0.3384
vn 0.8842 -0.3402 0.3199
vn 0.0009 1.0000 0.0012
vn -0.3730 0.9278 -0.0000
vn -0.3371 0.8866 0.3166
vn 0.0022 0.9336 0.3583
vn -0.9232 -0.3841 -0.0031
vn -0.9251 0.3796 -0.0018
vn -0.8842 0.3308 -0.3298
vn -0.8758 -0.3542 -0.3277
vn -0.0021 -0.4009 -0.9161
vn 0.0007 0.3758 -0.9267
vn 0.3565 0.3327 -0.8730
vn 0.3661 -0.3469 -0.8635
vn -0.3448 -0.8728 0.3454
vn -0.8816 -0.3426 0.3244
vn -0.8823 0.3422 0.3233
vn -0.3359 -0.8854 -0.3211
vn -0.3542 -0.3687 -0.8594
vn -0.3482 0.8758 -0.3342
vn -0.3599 0.3356 -0.8705
vn 0.3582 -0.3462 0.8671
vn 0.3301 0.8826 0.3347
vn 0.3501 0.3403 0.8727
vn 0.3605 -0.8719 -0.3312
vn 0.8885 -0.3263 -0.3227
vn 0.3403 0.8761 -0.3415
vn 0.8802 0.3359 -0.3353
vn -0.3838 -0.9234 -0.0035
vn -0.0037 -0.9297 -0.3683
vn 0.0011 0.9271 -0.3747
vn 0.3652 0.9309 0.0005
s 1
f 42/1/1 37/2/2 13/3/3 29/4/4
f 30/5/5 32/6/6 4/7/7 2/8/8
f 38/9/9 40/10/10 18/11/11 14/12/12
f 41/13/13 35/14/14 5/15/15 31/16/16
f 34/17/17 36/18/18 12/19/19 8/20/20
f 26/21/21 28/22/22 24/23/23 20/24/24
f 1/25/25 2/8/8 3/26/26
f 4/7/7 5/27/15 6/28/27
f 7/29/28 8/20/20 9/30/29
f 10/31/30 11/32/31 12/19/19
f 13/33/3 14/34/12 15/35/32
f 16/36/33 17/37/34 18/38/11
f 19/39/35 20/40/24 21/41/36
f 22/42/37 23/43/38 24/44/23
f 33/45/39 1/46/25 3/47/26 34/17/17
f 2/8/8 4/7/7 6/28/27 3/26/26
f 35/48/14 10/31/30 12/19/19 36/18/18
f 11/32/31 9/30/29 8/20/20 12/19/19
f 25/49/40 7/50/28 9/51/29 26/21/21
f 27/52/41 22/53/37 24/23/23 28/22/22
f 23/43/38 21/41/36 20/40/24 24/44/23
f 37/54/2 19/39/35 21/41/36 38/9/9
f 39/55/42 16/56/33 18/11/11 40/10/10
f 17/37/34 15/35/32 14/34/12 18/38/11
f 29/57/4 13/33/3 15/35/32 30/5/5
f 31/58/16 5/27/15 4/7/7 32/6/6
f 16/36/33 31/58/16 32/6/6 17/37/34
f 1/25/25 29/57/4 30/5/5 2/8/8
f 10/59/30 27/52/41 28/22/22 11/60/31
f 19/61/35 25/49/40 26/21/21 20/24/24
f 9/51/29 11/60/31 28/22/22 26/21/21
f 39/62/42 41/13/13 31/16/16 16/63/33
f 15/35/32 17/37/34 32/6/6 30/5/5
f 33/64/39 42/1/1 29/4/4 1/65/25
f 7/50/28 25/49/40 42/1/1 33/64/39
f 22/53/37 27/52/41 41/13/13 39/62/42
f 22/42/37 39/55/42 40/10/10 23/43/38
f 13/66/3 37/54/2 38/9/9 14/12/12
f 5/67/15 35/48/14 36/18/18 6/68/27
f 7/29/28 33/45/39 34/17/17 8/20/20
f 3/47/26 6/68/27 36/18/18 34/17/17
f 27/52/41 10/59/30 35/14/14 41/13/13
f 21/41/36 23/43/38 40/10/10 38/9/9
f 25/49/40 19/61/35 37/2/2 42/1/1
