# Blender v2.79 (sub 0) OBJ File: 'Ruins.blend'
# www.blender.org
o Column_Model_Cube.083
v 0.137912 0.225290 0.332950
v -0.330940 0.225305 0.137080
v 0.334174 0.225280 0.138419
v 0.138799 0.225273 -0.335091
v -0.138720 0.225275 -0.334899
v -0.138429 0.225280 0.334197
v 0.334609 0.225277 -0.138600
v -0.334531 0.225278 -0.138567
v 0.137819 0.202194 -0.332724
v -0.361475 0.225290 -0.000000
v 0.255640 0.225290 0.255640
v -0.256072 0.225286 -0.256072
v 0.332260 0.202313 -0.137626
v -0.254903 0.225297 0.254903
v 0.000000 0.225294 0.360885
v 0.331899 0.202404 0.137477
v 0.362021 0.225286 -0.000000
v 0.256348 0.225283 -0.256348
v 0.137344 0.202486 0.331579
v -0.137812 0.251599 -0.332707
v -0.330310 0.250660 -0.136819
v -0.137286 0.202522 0.331437
v -0.329020 0.250155 0.136285
v -0.137125 0.250949 0.331047
v -0.331594 0.202482 0.137351
v 0.136874 0.250713 0.330444
v 0.332199 0.251400 0.137601
v -0.332398 0.202277 -0.137684
v 0.332137 0.251375 -0.137576
v 0.137638 0.251435 -0.332289
v -0.137815 0.202197 -0.332716
v 0.000000 0.225281 -0.362751
v 0.134994 0.177040 -0.325904
v 0.331180 0.180534 -0.137179
v 0.325899 0.177037 0.134992
v 0.134990 0.177035 0.325896
v -0.134964 0.176993 0.325833
v -0.325905 0.177040 0.134994
v -0.325899 0.177037 -0.134991
v -0.134994 0.177040 -0.325903
v 0.141628 0.176974 -0.341921
v 0.342062 0.179062 -0.141687
v 0.341921 0.176974 0.141628
v 0.141628 0.176974 0.341921
v -0.141623 0.176776 0.341907
v -0.341862 0.176100 0.141604
v -0.341920 0.176961 -0.141628
v -0.141629 0.176979 -0.341921
v 0.000000 0.202435 -0.360253
v -0.254137 0.250930 -0.254137
v 0.254594 0.202483 -0.254594
v -0.356328 0.249817 -0.000000
v 0.359563 0.202597 -0.000000
v -0.252924 0.250309 0.252924
v 0.253921 0.202707 0.253921
v 0.000000 0.249866 0.356464
v 0.000000 0.202750 0.358912
v 0.254160 0.250942 0.254161
v -0.253919 0.202707 0.253919
v 0.359206 0.250858 -0.000000
v -0.359579 0.202593 -0.000000
v 0.254269 0.250997 -0.254269
v -0.254520 0.202507 -0.254520
v 0.000000 0.250549 -0.358352
v 0.000000 0.176871 -0.353560
v 0.250239 0.177076 -0.250239
v 0.353575 0.176880 -0.000000
v 0.250240 0.177076 0.250240
v 0.000000 0.176873 0.353564
v -0.250239 0.177076 0.250239
v -0.352251 0.176062 -0.000000
v -0.250240 0.177076 -0.250240
v 0.000000 0.176386 -0.364401
v 0.262513 0.176995 -0.262513
v 0.371039 0.174090 -0.000000
v 0.262517 0.177076 0.262517
v 0.000000 0.174064 0.371037
v -0.262491 0.176566 0.262491
v -0.370328 0.164256 -0.000000
v -0.262509 0.176925 -0.262509
v -0.376336 0.005739 0.376336
v -0.362959 0.159102 0.362959
v -0.377589 0.004532 -0.377589
v -0.374310 0.170882 -0.374309
v 0.379185 0.002994 0.379185
v 0.357085 0.153006 0.357085
v 0.378641 0.003518 -0.378642
v 0.364568 0.160772 -0.364568
v -0.379892 0.002320 -0.000000
v -0.372775 0.141765 -0.000000
v 0.378773 0.003408 -0.000000
v 0.375299 0.171915 -0.000000
v 0.000000 0.002223 -0.379991
v 0.000000 0.174316 -0.377636
v 0.000000 0.009128 0.372895
v 0.000000 0.171697 0.375087
v 0.000000 0.000000 -0.000000
v -0.379794 0.002415 0.190277
v 0.373515 0.170081 0.187953
v -0.367390 0.163788 0.187953
v 0.378190 0.003976 0.190277
v 0.000000 0.000000 0.190277
v -0.371673 0.168189 -0.187953
v 0.380096 0.002121 -0.190277
v -0.378429 0.003743 -0.190277
v 0.371685 0.168201 -0.187953
v 0.000000 -0.000000 -0.190277
v -0.190277 0.001492 -0.380742
v -0.187953 0.169183 0.372640
v -0.190277 0.000000 -0.000000
v -0.187953 0.168965 -0.372428
v -0.190277 0.007269 0.374806
v -0.190277 -0.000000 0.190277
v -0.190277 -0.000000 -0.190277
v 0.187953 0.167516 -0.371018
v 0.190277 0.006298 0.375804
v 0.190277 0.002618 -0.379585
v 0.187953 0.174905 0.378209
v 0.190277 -0.000000 -0.000000
v 0.190277 0.000000 0.190277
v 0.190277 -0.000000 -0.190277
v -0.130284 0.273992 -0.314533
v -0.314390 0.273759 -0.130225
v -0.314031 0.273175 0.130076
v -0.129821 0.272173 0.313415
v 0.130346 0.274236 0.314683
v 0.314176 0.273412 0.130136
v 0.313490 0.272295 -0.129852
v 0.130443 0.274615 -0.314916
v -0.241187 0.273356 -0.241187
v -0.339809 0.271437 -0.000000
v -0.241351 0.273702 0.241351
v 0.000000 0.270749 0.339349
v 0.242260 0.275627 0.242260
v 0.340889 0.273055 -0.000000
v 0.241070 0.273108 -0.241070
v 0.000000 0.271009 -0.339523
v -0.117724 0.279916 -0.284210
v -0.284561 0.280258 -0.117869
v -0.284352 0.280055 0.117782
v -0.117640 0.279719 0.284008
v 0.117671 0.279792 0.284083
v 0.284760 0.280453 0.117951
v 0.285831 0.281498 -0.118395
v 0.117719 0.279905 -0.284198
v -0.218614 0.280392 -0.218614
v -0.308337 0.279637 -0.000000
v -0.218135 0.279776 0.218135
v 0.000000 0.279647 0.308348
v 0.218135 0.279776 0.218135
v 0.308882 0.280133 -0.000000
v 0.218685 0.280484 -0.218685
v 0.000000 0.279827 -0.308546
v -0.118097 0.293380 -0.285111
v -0.284806 0.293573 -0.117970
v -0.284671 0.293657 0.117915
v -0.117838 0.293774 0.284486
v 0.117857 0.293744 0.284533
v 0.284622 0.293688 0.117895
v 0.285840 0.292923 -0.118399
v 0.118004 0.293521 -0.284887
v -0.218490 0.293738 -0.218490
v -0.308789 0.293857 -0.000000
v -0.218232 0.293952 0.218231
v 0.000000 0.294006 0.308534
v 0.218217 0.293964 0.218217
v 0.308948 0.293764 -0.000000
v 0.218546 0.293692 -0.218546
v 0.000000 0.293745 -0.308981
v -0.125226 0.306964 -0.302321
v -0.301944 0.307182 -0.125069
v -0.301650 0.307353 0.124947
v -0.124771 0.307600 0.301223
v 0.124541 0.307921 0.300668
v 0.301525 0.307424 0.124896
v 0.301821 0.307253 -0.125018
v 0.125237 0.306948 -0.302349
v -0.231408 0.307495 -0.231408
v -0.326895 0.307690 -0.000000
v -0.230861 0.307908 0.230860
v 0.000000 0.307954 0.326400
v 0.230702 0.308027 0.230702
v 0.326899 0.307688 -0.000000
v 0.231468 0.307450 -0.231468
v 0.000000 0.307361 -0.327511
v -0.126082 0.332880 -0.304389
v -0.305788 0.333375 -0.126661
v -0.304260 0.332835 0.126029
v -0.125219 0.332142 0.302304
v 0.123687 0.330833 0.298607
v 0.304676 0.332982 0.126201
v 0.304721 0.332998 -0.126220
v 0.126829 0.333519 -0.306193
v -0.232796 0.332461 -0.232796
v -0.328867 0.332344 -0.000000
v -0.233501 0.332786 0.233501
v 0.000000 0.332172 0.328341
v 0.232327 0.332244 0.232327
v 0.328974 0.332379 -0.000000
v 0.233527 0.332798 -0.233527
v 0.000000 0.331372 -0.325890
v -0.118458 0.358473 -0.285987
v -0.286449 0.359086 -0.118653
v -0.286061 0.358510 0.118488
v -0.117911 0.356468 0.284656
v 0.117180 0.353922 0.282887
v 0.286193 0.358698 0.118543
v 0.286483 0.359134 -0.118667
v 0.118559 0.358803 -0.286229
v -0.218190 0.355991 -0.218199
v -0.310186 0.357988 -0.000004
v -0.219433 0.358126 0.219429
v 0.000000 0.357571 0.309916
v 0.218543 0.356462 0.218536
v 0.310930 0.358952 -0.000002
v 0.219066 0.357558 -0.219072
v 0.000000 0.355996 -0.308545
v -0.111519 0.363880 -0.270650
v -0.269759 0.364275 -0.113162
v -0.270072 0.364486 0.110441
v -0.111112 0.362826 0.266829
v 0.111060 0.362714 0.266703
v 0.269951 0.364380 0.110392
v 0.269621 0.364157 -0.113104
v 0.112469 0.365799 -0.272956
v -0.206354 0.363431 -0.207771
v -0.292271 0.363706 -0.001421
v -0.206388 0.363312 0.204967
v 0.000000 0.363160 0.290309
v 0.206089 0.362965 0.204670
v 0.292913 0.364224 -0.001423
v 0.206773 0.363897 -0.208193
v 0.000000 0.363701 -0.293548
v -0.084047 2.022649 -0.204344
v -0.204401 2.022559 -0.086102
v -0.204710 2.022540 0.083358
v -0.084701 2.022553 0.203051
v 0.084748 2.022547 0.203164
v 0.203412 2.022618 0.082821
v 0.204714 2.022540 -0.086231
v 0.084051 2.022648 -0.204353
v -0.156328 2.022608 -0.157763
v -0.221245 2.022599 -0.001436
v -0.157215 2.022538 0.155779
v 0.000000 2.022666 0.218599
v 0.156771 2.022573 0.155336
v 0.221263 2.022598 -0.001436
v 0.156271 2.022612 -0.157707
v 0.000000 2.022703 -0.220817
v 0.262233 0.429368 -0.110056
v 0.201862 0.429478 -0.203298
v -0.201007 0.429293 0.199572
v -0.107916 0.429087 0.259097
v 0.109595 0.429758 -0.266021
v 0.000000 0.428870 0.280075
v 0.000000 0.429692 -0.288302
v -0.109175 0.429590 -0.265008
v 0.107643 0.428977 0.258439
v -0.200351 0.429150 -0.201786
v 0.199954 0.429064 0.198519
v -0.259989 0.428996 -0.109127
v 0.261425 0.429234 0.106850
v -0.283015 0.429101 -0.001436
v 0.282759 0.429062 -0.001436
v -0.262714 0.429448 0.107384
v 0.178664 0.575228 -0.180100
v -0.099704 0.575889 0.239271
v 0.098857 0.575722 -0.240097
v 0.000000 0.575583 0.255926
v -0.098083 0.575569 -0.238227
v 0.098055 0.575564 0.235291
v -0.178415 0.575201 -0.179851
v 0.178716 0.575234 0.177281
v -0.226381 0.574719 -0.095206
v 0.227521 0.574812 0.092807
v -0.244154 0.574584 -0.001436
v 0.248788 0.574934 -0.001436
v -0.227878 0.574841 0.092955
v 0.228505 0.574893 -0.096086
v -0.179005 0.575265 0.177569
v 0.000000 0.574242 -0.241073
v 0.232609 0.500014 -0.097786
v -0.182900 0.500913 0.181464
v 0.000000 0.502506 -0.270625
v 0.182600 0.500849 -0.184036
v -0.100041 0.501467 0.240085
v 0.101629 0.502092 -0.246790
v 0.000000 0.501620 0.261899
v -0.099819 0.501380 -0.242418
v 0.100380 0.501601 0.240903
v -0.181066 0.500521 -0.182501
v 0.181745 0.500666 0.180309
v -0.230618 0.499690 -0.096961
v 0.232101 0.499931 0.094704
v -0.249437 0.499519 -0.001436
v 0.249568 0.499539 -0.001436
v -0.232814 0.500048 0.094999
v 0.170509 0.850757 -0.171945
v -0.085140 0.849828 0.204112
v 0.093713 0.850994 -0.227679
v 0.000000 0.851397 0.251975
v -0.094164 0.851055 -0.228768
v 0.095241 0.851202 0.228498
v -0.170625 0.850765 -0.172060
v 0.170554 0.850760 0.169118
v -0.217596 0.850507 -0.091567
v 0.217165 0.850482 0.088517
v -0.233228 0.850344 -0.001436
v 0.232484 0.850305 -0.001436
v -0.217540 0.850504 0.088672
v 0.217162 0.850482 -0.091387
v -0.170828 0.850780 0.169392
v 0.000000 0.851345 -0.253851
v 0.150984 1.453495 -0.152420
v -0.084427 1.453838 0.202390
v 0.084067 1.453797 -0.204392
v 0.000000 1.453947 0.222383
v -0.084227 1.453815 -0.204776
v 0.084360 1.453831 0.202228
v -0.150894 1.453489 -0.152329
v 0.151045 1.453499 0.149610
v -0.194051 1.453375 -0.081814
v 0.192789 1.453315 0.078420
v -0.206244 1.453175 -0.001436
v 0.205881 1.453159 -0.001436
v -0.193862 1.453366 0.078865
v 0.192303 1.453292 -0.081090
v -0.151330 1.453516 0.149894
v 0.000000 1.453895 -0.224067
v 0.141297 1.755131 -0.142733
v -0.078300 1.755281 0.187597
v 0.078480 1.755294 -0.190905
v 0.000000 1.755414 0.208706
v -0.078805 1.755317 -0.191688
v 0.078700 1.755309 0.188563
v -0.141479 1.755138 -0.142914
v 0.141327 1.755132 0.139891
v -0.180375 1.755024 -0.076150
v 0.180244 1.755020 0.073224
v -0.195417 1.755010 -0.001436
v 0.192683 1.754935 -0.001436
v -0.180303 1.755022 0.073248
v 0.179946 1.755012 -0.075972
v -0.141632 1.755144 0.140196
v 0.000000 1.755309 -0.207776
v 0.141280 1.925462 -0.142715
v -0.078721 1.924939 0.188614
v 0.078543 1.924976 -0.191056
v 0.000000 1.924822 0.206418
v -0.078354 1.925015 -0.190600
v 0.077786 1.925132 0.186357
v -0.141438 1.925444 -0.142874
v 0.139653 1.925645 0.138218
v -0.180386 1.925767 -0.076154
v 0.178891 1.925895 0.072663
v -0.193155 1.925990 -0.001436
v 0.192848 1.926015 -0.001436
v -0.180394 1.925767 0.073286
v 0.180110 1.925791 -0.076040
v -0.141579 1.925428 0.140143
v 0.000000 1.924798 -0.209589
v -0.085705 2.060132 -0.208346
v -0.205593 2.061428 -0.086595
v -0.208158 2.058903 0.084786
v -0.085436 2.060771 0.204824
v 0.086114 2.059160 0.206461
v 0.207088 2.059957 0.084343
v 0.206749 2.060290 -0.087074
v 0.085919 2.059623 -0.208862
v -0.158352 2.060791 -0.159787
v -0.225373 2.059477 -0.001436
v -0.159662 2.059088 0.158227
v 0.000000 2.059963 0.223409
v 0.158646 2.060409 0.157210
v 0.224812 2.059993 -0.001436
v 0.157823 2.061478 -0.159259
v 0.000000 2.059872 -0.226379
v -0.090396 2.064525 -0.219670
v -0.219105 2.063494 -0.092192
v -0.220255 2.062133 0.089797
v -0.090769 2.063460 0.217699
v 0.090789 2.063400 0.217750
v 0.218197 2.064569 0.088945
v 0.218616 2.064074 -0.091990
v 0.090708 2.063632 -0.220425
v -0.168233 2.063475 -0.169668
v -0.238466 2.062877 -0.001436
v -0.168287 2.063392 0.166851
v 0.000000 2.064981 0.235097
v 0.169066 2.062192 0.167631
v 0.235834 2.065740 -0.001436
v 0.168115 2.063655 -0.169551
v 0.000000 2.064108 -0.238770
v -0.093198 2.083688 -0.226435
v -0.224809 2.083722 -0.094555
v -0.226546 2.083412 0.092403
v -0.093239 2.083670 0.223664
v 0.094608 2.083079 0.226970
v 0.225782 2.083549 0.092086
v 0.224036 2.083860 -0.094235
v 0.093498 2.083558 -0.227161
v -0.172907 2.083652 -0.174342
v -0.244066 2.083729 -0.001436
v -0.172581 2.083729 0.171145
v 0.000000 2.083735 0.242592
v 0.174015 2.083393 0.172580
v 0.243848 2.083765 -0.001436
v 0.172884 2.083658 -0.174320
v 0.000000 2.084035 -0.243647
v -0.091702 2.103826 -0.222823
v -0.224986 2.105463 -0.094628
v -0.221950 2.104082 0.090499
v -0.093368 2.105655 0.223973
v 0.093527 2.105830 0.224358
v 0.225535 2.105713 0.091984
v 0.221688 2.103963 -0.093262
v 0.091930 2.104077 -0.223375
v -0.170829 2.104331 -0.172265
v -0.243902 2.105300 -0.001436
v -0.172944 2.105585 0.171508
v 0.000000 2.104815 0.241308
v 0.171248 2.104579 0.169812
v 0.243353 2.105071 -0.001436
v 0.171654 2.104820 -0.173090
v 0.000000 2.104057 -0.242371
v -0.088314 2.115605 -0.214645
v -0.214164 2.116108 -0.090145
v -0.213824 2.115929 0.087133
v -0.088850 2.116285 0.213066
v 0.088862 2.116301 0.213096
v 0.214361 2.116211 0.087356
v 0.213722 2.115875 -0.089962
v 0.088219 2.115484 -0.214415
v -0.163412 2.115394 -0.164847
v -0.231816 2.115745 -0.001436
v -0.164115 2.115881 0.162679
v 0.000000 2.116042 0.230986
v 0.163708 2.115600 0.162273
v 0.231794 2.115735 -0.001436
v 0.163526 2.115474 -0.164962
v 0.000000 2.115391 -0.232528
v -0.089981 2.195742 -0.218668
v -0.218251 2.195018 -0.091838
v -0.216796 2.196052 0.088364
v -0.089941 2.195810 0.215700
v 0.085642 2.203174 0.205322
v 0.211300 2.199951 0.086088
v 0.216291 2.196409 -0.091027
v 0.089846 2.195971 -0.218344
v -0.165802 2.196629 -0.167238
v -0.236892 2.195035 -0.001436
v -0.166315 2.196149 0.164879
v 0.000000 2.200068 0.227843
v 0.161716 2.200450 0.160281
v 0.234616 2.196539 -0.001436
v 0.165810 2.196622 -0.167246
v 0.000000 2.195291 -0.237939
v -0.101010 2.220249 -0.245296
v -0.246436 2.217612 -0.103513
v -0.244069 2.220035 0.099661
v -0.100853 2.220638 0.242045
v 0.101372 2.219354 0.243299
v 0.244337 2.219761 0.099772
v 0.241255 2.222915 -0.101367
v 0.101403 2.219279 -0.246244
v -0.188230 2.218916 -0.189666
v -0.266000 2.219103 -0.001436
v -0.187767 2.219534 0.186331
v 0.000000 2.222551 0.260911
v 0.186886 2.220710 0.185450
v 0.263744 2.221232 -0.001436
v 0.186291 2.221504 -0.187727
v 0.000000 2.219781 -0.266717
v -0.105884 2.245754 -0.257063
v -0.257438 2.245378 -0.108070
v -0.255462 2.245788 0.104380
v -0.105322 2.246037 0.252834
v 0.105801 2.245796 0.253992
v 0.255077 2.245868 0.104221
v 0.254686 2.245950 -0.106930
v 0.106158 2.245616 -0.257725
v -0.195794 2.245885 -0.197230
v -0.276492 2.245962 -0.001436
v -0.195121 2.246068 0.193685
v 0.000000 2.245882 0.275476
v 0.194601 2.246209 0.193165
v 0.275477 2.246157 -0.001436
v 0.195215 2.246042 -0.196651
v 0.000000 2.245488 -0.280393
v -0.106393 2.277928 -0.258292
v -0.254008 2.281257 -0.106650
v -0.254007 2.281257 0.103777
v -0.105190 2.281321 0.252516
v 0.105205 2.281280 0.252551
v 0.254277 2.280941 0.103889
v 0.253967 2.281304 -0.106633
v 0.106516 2.277580 -0.258589
v -0.195026 2.281331 -0.196462
v -0.275773 2.281369 -0.001436
v -0.195083 2.281241 0.193647
v 0.000000 2.281323 0.274377
v 0.195068 2.281264 0.193632
v 0.275793 2.281346 -0.001436
v 0.195271 2.280953 -0.196706
v 0.000000 2.274757 -0.283259
v 0.114069 2.279703 -0.275388
v 0.275391 2.282370 -0.114071
v 0.275390 2.282075 0.114071
v 0.114070 2.282134 0.275390
v -0.114070 2.281544 0.275389
v -0.275392 2.282938 0.114071
v -0.275391 2.281741 -0.114070
v -0.114070 2.280103 -0.275388
v -0.000994 2.279421 -0.288224
v 0.211434 2.280476 -0.211434
v 0.288221 2.279340 0.000614
v 0.211436 2.282775 0.211436
v 0.000000 2.282922 0.287476
v -0.211435 2.281693 0.211435
v -0.290706 2.291080 -0.000514
v -0.211437 2.282940 -0.211437
v -0.295667 2.414797 0.295667
v -0.289486 2.289631 0.289486
v -0.295938 2.415059 -0.295938
v -0.289485 2.289632 -0.289485
v 0.296271 2.415380 0.296271
v 0.294714 2.284222 0.294714
v 0.298566 2.417599 -0.298566
v 0.295298 2.283617 -0.295298
v -0.305555 2.424343 -0.000000
v -0.298852 2.305867 0.004344
v 0.298388 2.417354 -0.000000
v 0.296476 2.282337 -0.000000
v 0.000000 2.422126 -0.303282
v 0.001257 2.285716 -0.297042
v 0.000000 2.417074 0.298102
v -0.000130 2.284033 0.295837
v 0.000000 2.414978 -0.000000
v -0.299059 2.418007 0.153383
v 0.295825 2.283004 0.151509
v -0.295861 2.282969 0.151509
v 0.296009 2.415033 0.153383
v 0.000000 2.420912 0.153383
v -0.290836 2.288120 -0.151509
v 0.301466 2.420354 -0.153383
v -0.301315 2.420208 -0.153383
v 0.296369 2.282446 -0.151509
v 0.000000 2.411970 -0.153383
v -0.153383 2.423307 -0.304494
v -0.151509 2.282716 0.296107
v -0.153383 2.423815 -0.000000
v -0.151509 2.283323 -0.295514
v -0.153383 2.416047 0.297049
v -0.153383 2.423525 0.153383
v -0.153383 2.416107 -0.153383
v 0.151509 2.283222 -0.295612
v 0.153383 2.415135 0.296114
v 0.153383 2.423137 -0.304319
v 0.151509 2.284104 0.294752
v 0.153383 2.414241 -0.000000
v 0.153383 2.416247 0.153383
v 0.153383 2.417687 -0.153383
v -0.299645 2.350839 0.299645
v -0.301073 2.350767 -0.301073
v 0.303424 2.350650 -0.303424
v 0.301543 2.350744 0.301544
v 0.306401 2.350539 -0.000000
v -0.308746 2.350480 -0.000000
v 0.000000 2.350574 0.304994
v 0.000000 2.350489 -0.308381
v -0.308777 2.350480 0.152446
v 0.307450 2.350513 0.152446
v 0.308397 2.350489 -0.152446
v -0.312925 2.350376 -0.152446
v -0.152446 2.350513 -0.307416
v -0.152446 2.350438 0.310428
v 0.152446 2.350484 0.308577
v 0.152446 2.350459 -0.309606
v -0.372737 0.086808 0.372737
v -0.375297 0.086947 -0.375297
v 0.373846 0.086868 -0.373846
v 0.378985 0.087148 0.378985
v 0.379228 0.087134 -0.000000
v -0.380519 0.087169 -0.000000
v 0.000000 0.087035 0.375593
v 0.000000 0.087166 -0.380425
v -0.375771 0.087040 0.189115
v 0.381446 0.087194 0.189115
v 0.377582 0.087089 -0.189115
v -0.381093 0.087184 -0.189115
v -0.189115 0.087260 -0.383876
v -0.189115 0.086885 0.370086
v 0.189115 0.087141 0.379496
v 0.189115 0.087111 -0.378407
v -0.373416 0.154685 -0.000000
v -0.358763 0.169029 0.164728
v -0.319095 0.176991 0.319095
v -0.164728 0.176140 0.358763
v 0.000000 0.172862 0.373416
v 0.164728 0.176470 0.358763
v 0.319095 0.177024 0.319095
v 0.358763 0.176698 0.164728
v 0.373416 0.172943 -0.000000
v 0.358763 0.174946 -0.164728
v 0.319095 0.177376 -0.319095
v 0.164728 0.176064 -0.358763
v 0.000000 0.175789 -0.373416
v -0.164728 0.175472 -0.358763
v -0.319095 0.174348 -0.319095
v -0.358763 0.174322 -0.164728
v -0.296768 2.296237 -0.000212
v -0.289200 2.282324 0.132788
v -0.257224 2.282293 0.257224
v -0.132788 2.281028 0.289200
v 0.000569 2.283528 0.292402
v 0.132788 2.283086 0.289200
v 0.257224 2.282248 0.257224
v 0.289200 2.281664 0.132788
v 0.292795 2.280531 0.000917
v 0.289200 2.282411 -0.132788
v 0.257224 2.280475 -0.257224
v 0.132788 2.282678 -0.289200
v 0.000784 2.284696 -0.294246
v -0.132788 2.281458 -0.289200
v -0.257224 2.282898 -0.257224
v -0.289200 2.284729 -0.132788
v 0.212364 2.157601 0.086529
v 0.227084 2.157490 -0.001436
v -0.227405 2.157501 -0.001436
v -0.211117 2.157559 0.086012
v 0.208582 2.157473 -0.087833
v -0.160128 2.157471 0.158692
v 0.161908 2.157550 -0.163343
v -0.087651 2.157575 0.210172
v 0.087559 2.157568 -0.212822
v 0.000000 2.157516 0.226444
v 0.000000 2.157484 -0.228307
v -0.086477 2.157479 -0.210210
v 0.086252 2.157461 0.206795
v -0.158606 2.157403 -0.160042
v 0.160504 2.157487 0.159068
v -0.205437 2.157367 -0.086530
v 0.265849 0.398016 -0.111554
v -0.203040 0.397868 0.201604
v 0.000000 0.397850 -0.288382
v 0.203329 0.397908 -0.204765
v -0.108857 0.397701 0.261367
v 0.109990 0.397984 -0.266976
v 0.000000 0.397542 0.282309
v -0.109812 0.397940 -0.266545
v 0.108827 0.397694 0.261297
v -0.201720 0.397689 -0.203156
v 0.202049 0.397734 0.200614
v -0.264865 0.397914 -0.111146
v 0.265490 0.397979 0.108534
v -0.288868 0.398034 -0.001436
v 0.287949 0.397946 -0.001436
v -0.267122 0.398148 0.109210
vt 0.471623 0.746887
vt 0.472391 0.748363
vt 0.463134 0.752915
vt 0.462434 0.751392
vt 0.461652 0.749677
vt 0.470765 0.745246
vt 0.479702 0.740273
vt 0.480669 0.741872
vt 0.481463 0.743372
vt 0.302453 0.761267
vt 0.301852 0.764552
vt 0.281378 0.760360
vt 0.282144 0.757056
vt 0.283008 0.753407
vt 0.303123 0.757697
vt 0.322723 0.761047
vt 0.322229 0.764503
vt 0.321788 0.767650
vt 0.452846 0.755482
vt 0.453484 0.757099
vt 0.443249 0.760846
vt 0.442678 0.759130
vt 0.442057 0.757204
vt 0.452136 0.753653
vt 0.406632 0.766766
vt 0.406908 0.769022
vt 0.392515 0.770507
vt 0.392362 0.768046
vt 0.392211 0.765311
vt 0.406356 0.764223
vt 0.419303 0.762589
vt 0.419683 0.764883
vt 0.420046 0.766928
vt 0.376549 0.768546
vt 0.376573 0.771255
vt 0.359346 0.771028
vt 0.359476 0.768149
vt 0.359654 0.764929
vt 0.376557 0.765485
vt 0.261681 0.751731
vt 0.260714 0.755068
vt 0.239866 0.748424
vt 0.240893 0.744980
vt 0.242274 0.741268
vt 0.262784 0.747998
vt 0.431711 0.762428
vt 0.432200 0.764332
vt 0.431187 0.760292
vt 0.341279 0.766792
vt 0.340989 0.769859
vt 0.341625 0.763386
vt 0.280489 0.764245
vt 0.259600 0.758973
vt 0.432688 0.766156
vt 0.420497 0.769302
vt 0.392740 0.773394
vt 0.376639 0.774381
vt 0.238777 0.752464
vt 0.407260 0.771619
vt 0.359229 0.774381
vt 0.463962 0.754699
vt 0.454237 0.758974
vt 0.321269 0.771533
vt 0.301171 0.768370
vt 0.443941 0.762864
vt 0.482341 0.745144
vt 0.473286 0.750084
vt 0.340682 0.773406
vt 0.691457 0.084404
vt 0.690079 0.083005
vt 0.703963 0.073951
vt 0.704726 0.075801
vt 0.682432 0.128547
vt 0.680580 0.129303
vt 0.677323 0.113012
vt 0.679358 0.113025
vt 0.748884 0.084819
vt 0.750298 0.083425
vt 0.759328 0.097351
vt 0.757482 0.098104
vt 0.720268 0.070693
vt 0.720254 0.072731
vt 0.761798 0.113639
vt 0.759081 0.129872
vt 0.757254 0.129100
vt 0.760548 0.113628
vt 0.719651 0.153752
vt 0.719628 0.156206
vt 0.703394 0.152494
vt 0.704172 0.150648
vt 0.749885 0.143689
vt 0.748479 0.142273
vt 0.680810 0.096751
vt 0.682653 0.097543
vt 0.689608 0.143224
vt 0.691019 0.141837
vt 0.736529 0.074162
vt 0.735995 0.075413
vt 0.735920 0.152742
vt 0.735174 0.150874
vt 0.752404 0.938779
vt 0.752382 0.929421
vt 0.773775 0.929414
vt 0.773777 0.939049
vt 0.303859 0.913928
vt 0.303772 0.904660
vt 0.324056 0.905468
vt 0.325067 0.914023
vt 0.867550 0.016564
vt 0.867727 0.026124
vt 0.848203 0.024475
vt 0.845748 0.016495
vt 0.816773 0.424714
vt 0.815804 0.434113
vt 0.795975 0.430602
vt 0.795857 0.422160
vt 0.842299 0.135534
vt 0.863869 0.135474
vt 0.864056 0.157154
vt 0.842370 0.156837
vt 0.842169 0.091863
vt 0.863956 0.091796
vt 0.863871 0.113635
vt 0.842235 0.113699
vt 0.910973 0.016475
vt 0.910863 0.025807
vt 0.889294 0.026263
vt 0.889269 0.016523
vt 0.709003 0.938275
vt 0.709225 0.929414
vt 0.730775 0.932203
vt 0.730711 0.938530
vt 0.798496 0.091994
vt 0.820333 0.091928
vt 0.820398 0.113765
vt 0.798562 0.113831
vt 0.798628 0.135667
vt 0.820464 0.135601
vt 0.820529 0.156585
vt 0.798690 0.156861
vt 0.859913 0.429875
vt 0.858547 0.439868
vt 0.837180 0.436943
vt 0.838330 0.427299
vt 0.260445 0.913783
vt 0.260603 0.904321
vt 0.282188 0.903828
vt 0.282146 0.913839
vt 0.687923 0.938049
vt 0.689126 0.929687
vt 0.798429 0.070135
vt 0.820267 0.070154
vt 0.932174 0.016417
vt 0.931145 0.024968
vt 0.842105 0.070134
vt 0.863724 0.070178
vt 0.776929 0.070560
vt 0.776898 0.092058
vt 0.776799 0.113897
vt 0.776877 0.135735
vt 0.239068 0.913744
vt 0.239213 0.904110
vt 0.777336 0.157091
vt 0.881601 0.432223
vt 0.878257 0.439868
vt 0.719616 0.157341
vt 0.719587 0.158823
vt 0.697922 0.155599
vt 0.700649 0.154523
vt 0.677824 0.154784
vt 0.683063 0.149599
vt 0.676842 0.134631
vt 0.678629 0.131950
vt 0.676780 0.113011
vt 0.677015 0.113012
vt 0.676661 0.091355
vt 0.678894 0.094062
vt 0.679011 0.071708
vt 0.683696 0.076518
vt 0.698619 0.070134
vt 0.701306 0.072001
vt 0.720273 0.070134
vt 0.720270 0.070384
vt 0.741919 0.070597
vt 0.739210 0.072229
vt 0.762251 0.071670
vt 0.756829 0.077012
vt 0.762967 0.092006
vt 0.761282 0.094706
vt 0.763356 0.113654
vt 0.762839 0.113649
vt 0.762667 0.135236
vt 0.760994 0.132535
vt 0.762655 0.156602
vt 0.756356 0.150224
vt 0.741314 0.156254
vt 0.738602 0.154683
vt 0.418893 0.759983
vt 0.430626 0.757894
vt 0.469785 0.743355
vt 0.478507 0.738647
vt 0.406070 0.761292
vt 0.460752 0.747655
vt 0.303918 0.753619
vt 0.323290 0.757227
vt 0.392091 0.762297
vt 0.451337 0.751568
vt 0.284038 0.749220
vt 0.376604 0.761974
vt 0.441370 0.755017
vt 0.264029 0.743818
vt 0.359864 0.761260
vt 0.244107 0.737414
vt 0.342029 0.759514
vt 0.817628 0.297744
vt 0.831251 0.290882
vt 0.832251 0.294581
vt 0.819907 0.300748
vt 0.863419 0.362976
vt 0.849364 0.368844
vt 0.848644 0.365184
vt 0.861471 0.359956
vt 0.846465 0.289997
vt 0.846014 0.293724
vt 0.834098 0.368844
vt 0.834831 0.365051
vt 0.860945 0.294599
vt 0.859170 0.297848
vt 0.820003 0.363047
vt 0.808992 0.352528
vt 0.812124 0.350328
vt 0.822014 0.359946
vt 0.866046 0.297834
vt 0.876304 0.309091
vt 0.872999 0.311075
vt 0.863817 0.300788
vt 0.802700 0.338626
vt 0.806355 0.337779
vt 0.881694 0.323409
vt 0.877795 0.324006
vt 0.802249 0.323377
vt 0.805983 0.323966
vt 0.880784 0.338672
vt 0.877145 0.337799
vt 0.807455 0.309065
vt 0.810658 0.310982
vt 0.874560 0.352590
vt 0.871495 0.350408
vt 0.744819 0.515310
vt 0.746701 0.506997
vt 0.747661 0.507094
vt 0.745765 0.515636
vt 0.678579 0.458977
vt 0.662517 0.463273
vt 0.661822 0.461377
vt 0.678292 0.457197
vt 0.746545 0.498072
vt 0.747584 0.497935
vt 0.646923 0.470706
vt 0.645890 0.468999
vt 0.744324 0.488841
vt 0.745198 0.488497
vt 0.632698 0.481377
vt 0.631258 0.479805
vt 0.739312 0.479834
vt 0.740278 0.479147
vt 0.620643 0.494911
vt 0.618897 0.493651
vt 0.731767 0.471587
vt 0.732644 0.470578
vt 0.611467 0.510890
vt 0.609555 0.509797
vt 0.721619 0.464720
vt 0.708924 0.460008
vt 0.709314 0.458459
vt 0.722307 0.463383
vt 0.736114 0.529284
vt 0.741230 0.522797
vt 0.742053 0.523309
vt 0.736889 0.529897
vt 0.694323 0.457937
vt 0.694385 0.456235
vt 0.710032 0.455810
vt 0.723503 0.461175
vt 0.734188 0.468875
vt 0.743385 0.524145
vt 0.737949 0.531049
vt 0.694540 0.453310
vt 0.747282 0.516168
vt 0.677834 0.454108
vt 0.749340 0.507278
vt 0.660735 0.458326
vt 0.749340 0.497717
vt 0.644164 0.466103
vt 0.746954 0.487840
vt 0.628959 0.477269
vt 0.741998 0.477985
vt 0.616059 0.491595
vt 0.606287 0.508561
vt 0.553059 0.698630
vt 0.544444 0.688497
vt 0.546484 0.687037
vt 0.554927 0.696711
vt 0.672077 0.716403
vt 0.656935 0.721677
vt 0.656111 0.718612
vt 0.670837 0.713545
vt 0.537936 0.677337
vt 0.540126 0.676287
vt 0.640791 0.724933
vt 0.640400 0.721566
vt 0.533387 0.665379
vt 0.535653 0.664469
vt 0.624109 0.725629
vt 0.607465 0.724543
vt 0.607924 0.721292
vt 0.624145 0.722514
vt 0.718920 0.665647
vt 0.713628 0.678177
vt 0.711460 0.677060
vt 0.716547 0.664592
vt 0.591519 0.720902
vt 0.592392 0.717943
vt 0.706470 0.689813
vt 0.704424 0.688271
vt 0.576778 0.715329
vt 0.578100 0.712522
vt 0.697130 0.700151
vt 0.695247 0.698087
vt 0.563828 0.707642
vt 0.565395 0.705377
vt 0.685645 0.709033
vt 0.684116 0.706638
vt 0.692899 0.695478
vt 0.701864 0.686257
vt 0.567366 0.702467
vt 0.579711 0.709012
vt 0.682157 0.703543
vt 0.557258 0.694297
vt 0.669318 0.709939
vt 0.549059 0.685153
vt 0.655117 0.714755
vt 0.542862 0.674964
vt 0.639870 0.717401
vt 0.538705 0.663719
vt 0.608527 0.717244
vt 0.624167 0.718619
vt 0.708773 0.675682
vt 0.713310 0.663740
vt 0.593480 0.714247
vt 0.624179 0.716391
vt 0.639531 0.715321
vt 0.706905 0.674802
vt 0.711153 0.663404
vt 0.594214 0.712166
vt 0.608925 0.714994
vt 0.700162 0.685015
vt 0.580763 0.707092
vt 0.691416 0.694000
vt 0.568670 0.700782
vt 0.680871 0.701777
vt 0.558731 0.692948
vt 0.668298 0.707925
vt 0.550749 0.684016
vt 0.654438 0.712618
vt 0.544691 0.674140
vt 0.540734 0.663404
vt 0.078890 0.189622
vt 0.087982 0.189019
vt 0.088839 0.200058
vt 0.079717 0.200786
vt 0.160337 0.188116
vt 0.169304 0.188077
vt 0.169638 0.198746
vt 0.160550 0.198967
vt 0.097223 0.188425
vt 0.097923 0.199321
vt 0.178142 0.188034
vt 0.178732 0.198421
vt 0.106551 0.188002
vt 0.115836 0.187798
vt 0.115929 0.198586
vt 0.106955 0.198813
vt 0.033920 0.191708
vt 0.042932 0.191398
vt 0.042993 0.202375
vt 0.033679 0.202341
vt 0.124962 0.187804
vt 0.124853 0.198624
vt 0.052018 0.191059
vt 0.052279 0.202210
vt 0.133900 0.187882
vt 0.133733 0.198765
vt 0.061006 0.190625
vt 0.061466 0.201830
vt 0.142686 0.187989
vt 0.142608 0.198942
vt 0.069927 0.190167
vt 0.070602 0.201392
vt 0.151456 0.188071
vt 0.151537 0.199005
vt 0.162599 0.012053
vt 0.174449 0.013418
vt 0.173995 0.016774
vt 0.162277 0.015370
vt 0.056819 0.010914
vt 0.068771 0.010474
vt 0.068859 0.013829
vt 0.057014 0.014307
vt 0.150857 0.011167
vt 0.150663 0.014465
vt 0.044728 0.011818
vt 0.045060 0.015250
vt 0.139195 0.010714
vt 0.139097 0.014016
vt 0.032472 0.013221
vt 0.032956 0.016709
vt 0.127568 0.010495
vt 0.127523 0.013799
vt 0.020061 0.015159
vt 0.020716 0.018694
vt 0.115918 0.010406
vt 0.115892 0.013721
vt 0.007724 0.017737
vt 0.008508 0.021212
vt 0.092449 0.010344
vt 0.104218 0.010303
vt 0.104210 0.013628
vt 0.092452 0.013712
vt 0.186362 0.015198
vt 0.198213 0.017456
vt 0.197535 0.020796
vt 0.185783 0.018563
vt 0.080625 0.010319
vt 0.080645 0.013660
vt 0.161392 0.023884
vt 0.172867 0.025128
vt 0.171846 0.033677
vt 0.160628 0.032559
vt 0.057527 0.023072
vt 0.069053 0.022460
vt 0.069498 0.031255
vt 0.058151 0.031958
vt 0.150091 0.023010
vt 0.149558 0.031730
vt 0.045950 0.024023
vt 0.046798 0.032913
vt 0.138860 0.022498
vt 0.138505 0.031177
vt 0.034194 0.025383
vt 0.035323 0.034209
vt 0.127473 0.022163
vt 0.127234 0.030801
vt 0.022305 0.027219
vt 0.023716 0.035853
vt 0.115852 0.022008
vt 0.115700 0.030594
vt 0.010634 0.029443
vt 0.012212 0.037720
vt 0.092500 0.021970
vt 0.104209 0.021631
vt 0.104234 0.030446
vt 0.092643 0.030541
vt 0.184381 0.026762
vt 0.195652 0.028722
vt 0.194318 0.036761
vt 0.183162 0.035026
vt 0.080677 0.022092
vt 0.080946 0.030789
vt 0.168792 0.065099
vt 0.158152 0.064217
vt 0.071233 0.063509
vt 0.060621 0.064213
vt 0.147680 0.063524
vt 0.050023 0.065164
vt 0.137180 0.063029
vt 0.039236 0.066333
vt 0.126463 0.062689
vt 0.028171 0.067767
vt 0.115501 0.062545
vt 0.016899 0.069403
vt 0.104285 0.062629
vt 0.093056 0.062675
vt 0.190308 0.067542
vt 0.179298 0.066131
vt 0.082050 0.062991
vt 0.162886 0.134045
vt 0.153422 0.133440
vt 0.075619 0.133732
vt 0.066206 0.134376
vt 0.144082 0.132988
vt 0.056806 0.135167
vt 0.134695 0.132672
vt 0.047256 0.136111
vt 0.125114 0.132487
vt 0.037476 0.137255
vt 0.115256 0.132448
vt 0.027547 0.138607
vt 0.105192 0.132540
vt 0.095124 0.132809
vt 0.182324 0.135838
vt 0.172538 0.134868
vt 0.085236 0.133203
vt 0.160759 0.168617
vt 0.151829 0.168299
vt 0.077759 0.169324
vt 0.068767 0.169861
vt 0.142950 0.168068
vt 0.059813 0.170462
vt 0.134011 0.167924
vt 0.050763 0.171142
vt 0.124902 0.167873
vt 0.041586 0.171936
vt 0.115504 0.167928
vt 0.032360 0.172874
vt 0.105952 0.168114
vt 0.096393 0.168424
vt 0.178831 0.169581
vt 0.169773 0.169036
vt 0.086955 0.168835
vt 0.142550 0.202747
vt 0.133658 0.202733
vt 0.070834 0.205348
vt 0.061646 0.205810
vt 0.151527 0.202777
vt 0.080005 0.204763
vt 0.160600 0.202791
vt 0.089175 0.204174
vt 0.169758 0.202765
vt 0.098197 0.203208
vt 0.178969 0.202379
vt 0.115981 0.202461
vt 0.107122 0.202698
vt 0.043026 0.206334
vt 0.033568 0.206392
vt 0.124822 0.202540
vt 0.052402 0.206248
vt 0.449667 0.910118
vt 0.441842 0.915518
vt 0.440952 0.914331
vt 0.448972 0.908919
vt 0.535719 0.897298
vt 0.524310 0.895944
vt 0.524447 0.894264
vt 0.536001 0.895488
vt 0.434650 0.921489
vt 0.433597 0.920629
vt 0.512570 0.895347
vt 0.500799 0.895691
vt 0.500687 0.894009
vt 0.512592 0.893648
vt 0.587613 0.921488
vt 0.581067 0.915745
vt 0.581846 0.914752
vt 0.588603 0.920706
vt 0.489292 0.896917
vt 0.489036 0.895150
vt 0.573765 0.910704
vt 0.574572 0.909481
vt 0.478266 0.898974
vt 0.477837 0.897218
vt 0.565884 0.905979
vt 0.566516 0.904768
vt 0.467856 0.901846
vt 0.467312 0.900372
vt 0.556887 0.902117
vt 0.557366 0.900783
vt 0.458445 0.905781
vt 0.457824 0.904440
vt 0.546646 0.899368
vt 0.547022 0.897804
vt 0.558142 0.898708
vt 0.567487 0.902839
vt 0.456785 0.902258
vt 0.466459 0.898041
vt 0.547647 0.895432
vt 0.447819 0.906989
vt 0.536418 0.892932
vt 0.439606 0.912586
vt 0.524662 0.891600
vt 0.432072 0.919120
vt 0.500519 0.891410
vt 0.512612 0.891017
vt 0.583182 0.913109
vt 0.590038 0.919326
vt 0.488670 0.892549
vt 0.575766 0.907654
vt 0.477232 0.894740
vt 0.488293 0.889965
vt 0.500358 0.888796
vt 0.576936 0.905866
vt 0.584591 0.911396
vt 0.476581 0.892170
vt 0.568550 0.900761
vt 0.465593 0.895691
vt 0.558993 0.896459
vt 0.455772 0.900167
vt 0.548285 0.893087
vt 0.446601 0.904994
vt 0.536866 0.890336
vt 0.438198 0.910755
vt 0.524869 0.888956
vt 0.430627 0.917406
vt 0.512631 0.888425
vt 0.591423 0.917778
vt 0.497015 0.166231
vt 0.487515 0.165587
vt 0.487619 0.163974
vt 0.497111 0.164581
vt 0.580643 0.169272
vt 0.569611 0.169034
vt 0.569636 0.167263
vt 0.580650 0.167415
vt 0.477964 0.164883
vt 0.478274 0.163379
vt 0.558640 0.168887
vt 0.547791 0.168568
vt 0.547834 0.166860
vt 0.558676 0.167119
vt 0.644518 0.165817
vt 0.634058 0.167318
vt 0.633861 0.165527
vt 0.644067 0.164186
vt 0.537114 0.168373
vt 0.537178 0.166641
vt 0.623629 0.168081
vt 0.623519 0.166374
vt 0.526617 0.167981
vt 0.526719 0.166229
vt 0.613149 0.168655
vt 0.613074 0.166851
vt 0.516381 0.167322
vt 0.516510 0.165612
vt 0.602533 0.169023
vt 0.602458 0.167214
vt 0.506614 0.166520
vt 0.506702 0.164996
vt 0.591642 0.169096
vt 0.591621 0.167373
vt 0.612894 0.162026
vt 0.602349 0.162187
vt 0.602317 0.157480
vt 0.612759 0.157135
vt 0.516772 0.160907
vt 0.506916 0.160494
vt 0.507067 0.156323
vt 0.516881 0.156627
vt 0.591594 0.162280
vt 0.591583 0.157499
vt 0.497333 0.160108
vt 0.497506 0.155925
vt 0.580689 0.162254
vt 0.580715 0.157486
vt 0.487876 0.159627
vt 0.488060 0.155601
vt 0.569703 0.162116
vt 0.569778 0.157423
vt 0.478625 0.159118
vt 0.478795 0.154762
vt 0.558755 0.161956
vt 0.547929 0.161791
vt 0.548008 0.157118
vt 0.558835 0.157255
vt 0.643366 0.159536
vt 0.633372 0.160760
vt 0.632877 0.155568
vt 0.642846 0.154763
vt 0.537302 0.161598
vt 0.537419 0.156863
vt 0.623220 0.161521
vt 0.622916 0.156599
vt 0.526933 0.161325
vt 0.527037 0.156744
vt 0.027802 0.753471
vt 0.036404 0.763560
vt 0.032452 0.767910
vt 0.022758 0.757331
vt 0.125398 0.779567
vt 0.132404 0.774582
vt 0.134561 0.777095
vt 0.127321 0.782665
vt 0.047051 0.771594
vt 0.043900 0.776462
vt 0.138272 0.769023
vt 0.140636 0.771063
vt 0.058698 0.778270
vt 0.056439 0.783167
vt 0.142793 0.762841
vt 0.145364 0.764419
vt 0.071150 0.782957
vt 0.069650 0.787978
vt 0.146191 0.756335
vt 0.148911 0.757440
vt 0.083622 0.785970
vt 0.082906 0.790966
vt 0.148330 0.749467
vt 0.151148 0.750087
vt 0.095747 0.787019
vt 0.095819 0.791758
vt 0.149144 0.742418
vt 0.152254 0.742336
vt 0.107080 0.786297
vt 0.117021 0.783552
vt 0.118469 0.787216
vt 0.107903 0.790558
vt 0.020555 0.742336
vt 0.014999 0.744589
vt 0.095903 0.795287
vt 0.082409 0.794467
vt 0.154409 0.742413
vt 0.153186 0.750535
vt 0.119611 0.789901
vt 0.108625 0.793772
vt 0.019571 0.759740
vt 0.011182 0.746386
vt 0.128761 0.784905
vt 0.029851 0.770787
vt 0.136265 0.779011
vt 0.041799 0.779778
vt 0.142435 0.772550
vt 0.054920 0.786635
vt 0.147265 0.765553
vt 0.068641 0.791493
vt 0.150892 0.758228
vt 0.149693 0.766966
vt 0.144724 0.774384
vt 0.067347 0.796115
vt 0.052967 0.791143
vt 0.153412 0.759211
vt 0.081804 0.798988
vt 0.155811 0.751135
vt 0.096033 0.799258
vt 0.157135 0.742867
vt 0.121020 0.792954
vt 0.109448 0.797079
vt 0.015536 0.762889
vt 0.006721 0.749321
vt 0.130631 0.787685
vt 0.026491 0.774525
vt 0.138395 0.781324
vt 0.039159 0.783964
vt 0.158667 0.966537
vt 0.175724 0.966757
vt 0.174382 0.973906
vt 0.158522 0.974093
vt 0.847899 0.391551
vt 0.865229 0.391560
vt 0.864318 0.399316
vt 0.847807 0.399427
vt 0.787156 0.969863
vt 0.770043 0.969867
vt 0.770808 0.962187
vt 0.787252 0.962006
vt 0.941174 0.799435
vt 0.924277 0.799453
vt 0.925375 0.792312
vt 0.941247 0.791510
vt 0.888059 0.470036
vt 0.888162 0.453652
vt 0.904561 0.453735
vt 0.904430 0.470134
vt 0.887862 0.505257
vt 0.887958 0.487644
vt 0.904605 0.487742
vt 0.904863 0.505351
vt 0.822138 0.969881
vt 0.804647 0.969872
vt 0.804648 0.961956
vt 0.822044 0.961956
vt 0.123709 0.966205
vt 0.141210 0.966348
vt 0.140653 0.971604
vt 0.123713 0.974093
vt 0.852645 0.505040
vt 0.852729 0.487411
vt 0.870356 0.487538
vt 0.870252 0.505133
vt 0.852846 0.469816
vt 0.852953 0.453310
vt 0.870558 0.453310
vt 0.870446 0.469925
vt 0.976164 0.799381
vt 0.958659 0.799409
vt 0.958635 0.791684
vt 0.976056 0.791607
vt 0.812926 0.391553
vt 0.830417 0.391553
vt 0.830555 0.399103
vt 0.813012 0.399383
vt 0.106786 0.966060
vt 0.107839 0.973211
vt 0.852548 0.522409
vt 0.870154 0.522368
vt 0.839464 0.969888
vt 0.838554 0.962133
vt 0.887757 0.522594
vt 0.904436 0.522015
vt 0.836168 0.521297
vt 0.835654 0.504922
vt 0.835266 0.487309
vt 0.836121 0.469694
vt 0.795857 0.391570
vt 0.797150 0.398722
vt 0.836620 0.453362
vt 0.993279 0.799376
vt 0.992511 0.791691
vt 0.855821 0.908575
vt 0.857151 0.923900
vt 0.856422 0.926060
vt 0.854681 0.909080
vt 0.860821 0.938139
vt 0.857073 0.941862
vt 0.875044 0.941846
vt 0.872893 0.942651
vt 0.890344 0.942301
vt 0.890263 0.942700
vt 0.905524 0.941985
vt 0.907671 0.942640
vt 0.919822 0.938375
vt 0.924108 0.942700
vt 0.923553 0.924110
vt 0.924311 0.926265
vt 0.924057 0.908970
vt 0.924527 0.908866
vt 0.923677 0.893622
vt 0.924506 0.891477
vt 0.920084 0.879341
vt 0.924479 0.875001
vt 0.905847 0.875556
vt 0.908011 0.874852
vt 0.890650 0.874525
vt 0.890706 0.874185
vt 0.875260 0.875446
vt 0.873099 0.874712
vt 0.860987 0.879105
vt 0.857260 0.875353
vt 0.857299 0.893347
vt 0.856941 0.891188
vt 0.878329 0.879009
vt 0.868122 0.886084
vt 0.866231 0.884360
vt 0.877430 0.877025
vt 0.861323 0.896369
vt 0.858878 0.895514
vt 0.858773 0.908426
vt 0.856734 0.908545
vt 0.861190 0.920525
vt 0.858716 0.921727
vt 0.867940 0.930867
vt 0.866065 0.932905
vt 0.878227 0.937658
vt 0.877198 0.940275
vt 0.890288 0.940216
vt 0.890281 0.941731
vt 0.902374 0.937762
vt 0.903381 0.940389
vt 0.912716 0.931042
vt 0.914589 0.933098
vt 0.919556 0.920770
vt 0.921977 0.921953
vt 0.922074 0.908692
vt 0.923515 0.908933
vt 0.919622 0.896608
vt 0.922086 0.895763
vt 0.912930 0.886237
vt 0.914798 0.884556
vt 0.902764 0.879081
vt 0.903661 0.877140
vt 0.890553 0.876206
vt 0.890442 0.875438
vt 0.830412 0.383307
vt 0.848023 0.383194
vt 0.992711 0.806831
vt 0.976292 0.806930
vt 0.958668 0.807099
vt 0.941047 0.807100
vt 0.796403 0.384160
vt 0.812800 0.383193
vt 0.141283 0.957849
vt 0.158908 0.958440
vt 0.838926 0.977597
vt 0.822253 0.977933
vt 0.804639 0.977601
vt 0.787025 0.977378
vt 0.107265 0.958694
vt 0.123628 0.958376
vt 0.924698 0.806819
vt 0.770617 0.977316
vt 0.864705 0.383850
vt 0.175286 0.959334
vt 0.282117 0.923591
vt 0.303957 0.923627
vt 0.882674 0.422630
vt 0.861091 0.420651
vt 0.839376 0.418418
vt 0.817730 0.415612
vt 0.238777 0.923206
vt 0.260278 0.923627
vt 0.730594 0.948266
vt 0.752433 0.948359
vt 0.932700 0.006837
vt 0.911087 0.006721
vt 0.889254 0.006915
vt 0.867422 0.007002
vt 0.687404 0.947357
vt 0.708757 0.947998
vt 0.796564 0.412870
vt 0.845747 0.006839
vt 0.325577 0.923608
vt 0.773931 0.948514
vt 0.068686 0.006877
vt 0.080604 0.006721
vt 0.174928 0.009722
vt 0.186998 0.011425
vt 0.092449 0.006918
vt 0.199094 0.013731
vt 0.104232 0.006721
vt 0.115947 0.006852
vt 0.006721 0.013855
vt 0.019334 0.011173
vt 0.127618 0.006885
vt 0.031962 0.009327
vt 0.139300 0.007191
vt 0.044393 0.008140
vt 0.151061 0.007589
vt 0.056624 0.007274
vt 0.162929 0.008516
vn 0.3791 0.0181 0.9251
vn 0.3774 -0.1485 0.9141
vn 0.6969 -0.1576 0.6997
vn 0.7040 -0.0043 0.7101
vn 0.6602 0.3445 0.6674
vn 0.3487 0.3574 0.8664
vn 0.0021 0.3905 0.9206
vn 0.0030 0.0271 0.9996
vn 0.0010 -0.1542 0.9880
vn -0.9223 0.0498 0.3833
vn -0.9161 -0.1267 0.3804
vn -0.7027 -0.1350 0.6985
vn -0.7126 0.0268 0.7010
vn -0.6663 0.3566 0.6549
vn -0.8652 0.3539 0.3552
vn -0.9241 0.3820 0.0075
vn -0.9985 0.0540 0.0092
vn -0.9875 -0.1577 0.0054
vn 0.9234 -0.0093 0.3837
vn 0.9103 -0.1678 0.3783
vn 0.9887 -0.1499 0.0047
vn 1.0000 -0.0038 0.0011
vn 0.9230 0.3848 -0.0001
vn 0.8607 0.3646 0.3553
vn 0.3823 0.0097 -0.9240
vn 0.3765 -0.1850 -0.9077
vn -0.0002 -0.1862 -0.9825
vn -0.0001 0.0142 -0.9999
vn 0.0005 0.4013 -0.9159
vn 0.3489 0.3924 -0.8510
vn 0.6532 0.3872 -0.6507
vn 0.7082 0.0009 -0.7060
vn 0.6970 -0.1568 -0.6997
vn -0.3832 0.0061 -0.9236
vn -0.3773 -0.1808 -0.9083
vn -0.6970 -0.1748 -0.6955
vn -0.7092 0.0107 -0.7049
vn -0.6587 0.3788 -0.6500
vn -0.3496 0.3922 -0.8508
vn -0.3823 0.0178 0.9239
vn -0.3777 -0.1582 0.9123
vn -0.3490 0.3910 0.8516
vn 0.9245 -0.0011 -0.3811
vn 0.9166 -0.1303 -0.3779
vn 0.8499 0.3934 -0.3505
vn -0.9248 0.0355 -0.3788
vn -0.9103 -0.1756 -0.3747
vn -0.8540 0.3894 -0.3450
vn -0.5282 0.6673 0.5250
vn -0.2811 0.6525 0.7037
vn 0.6924 0.6677 -0.2731
vn 0.5189 0.6682 -0.5331
vn 0.0000 0.6515 -0.7586
vn -0.2882 0.6516 -0.7016
vn -0.0010 0.6422 0.7665
vn 0.2878 0.6515 -0.7019
vn -0.5294 0.6637 -0.5284
vn 0.5190 0.6784 0.5199
vn 0.7046 0.6517 0.2805
vn -0.8657 0.5006 0.0039
vn -0.7673 0.5798 0.2740
vn 0.7718 0.6358 0.0106
vn 0.2779 0.6566 0.7011
vn -0.7676 0.5814 -0.2697
vn 0.0019 1.0000 0.0025
vn 0.0509 0.9987 -0.0019
vn -0.0024 0.9981 0.0612
vn -0.0010 0.9956 0.0934
vn 0.0174 0.9997 -0.0173
vn 0.0019 0.9996 -0.0273
vn 0.1458 0.9893 -0.0045
vn -0.0011 0.9990 -0.0445
vn -0.0077 0.9992 -0.0398
vn -0.4768 0.8789 0.0116
vn -0.3395 0.9404 0.0200
vn -0.0210 0.9996 -0.0176
vn -0.0011 0.9984 0.0559
vn -0.0341 0.9993 0.0113
vn 0.1394 0.9901 -0.0173
vn -0.2859 0.9582 -0.0037
vn -0.9991 0.0417 -0.0052
vn -0.7737 0.6335 -0.0001
vn -0.5737 0.5904 -0.5676
vn -0.7107 0.0451 -0.7021
vn 0.0193 0.0528 -0.9984
vn 0.0513 0.5978 -0.8000
vn 0.5894 0.5491 -0.5925
vn 0.7041 0.0971 -0.7034
vn 0.9981 0.0594 0.0152
vn 0.7938 0.6039 0.0716
vn 0.5904 0.5687 0.5728
vn 0.7019 0.0972 0.7056
vn -0.0101 0.0251 0.9996
vn -0.0516 0.5802 0.8129
vn -0.6004 0.5347 0.5946
vn -0.6979 0.0922 0.7102
vn 0.0034 -0.9999 0.0144
vn 0.7037 -0.7105 0.0053
vn 0.5675 -0.5877 0.5766
vn -0.0109 -0.7080 0.7061
vn 0.0059 -1.0000 -0.0050
vn 0.7208 -0.6930 -0.0078
vn 0.7113 -0.7028 -0.0001
vn 0.0085 -0.9999 0.0012
vn 0.9984 0.0537 -0.0153
vn 0.7921 0.6087 -0.0451
vn 0.8227 0.5683 -0.0082
vn 0.9995 0.0299 -0.0051
vn -0.9968 0.0778 0.0180
vn -0.8170 0.5756 0.0322
vn -0.9585 0.2846 0.0163
vn -0.9980 0.0621 0.0093
vn -0.0080 -0.9999 -0.0049
vn 0.0007 -1.0000 -0.0056
vn 0.0000 -1.0000 0.0000
vn -0.0071 -1.0000 -0.0009
vn -0.0024 -0.9998 0.0183
vn -0.0006 -0.9998 0.0216
vn -0.0105 -0.6967 0.7172
vn 0.0016 -0.6823 0.7310
vn 0.0063 0.0273 0.9996
vn 0.0681 0.6368 0.7680
vn -0.0229 0.5893 0.8076
vn -0.0169 -0.0073 0.9998
vn -0.0109 0.0334 -0.9994
vn -0.0178 0.6694 -0.7427
vn 0.0078 0.5695 -0.8219
vn 0.0089 0.0321 -0.9994
vn -0.0128 -0.7086 -0.7054
vn 0.0072 -0.7061 -0.7081
vn 0.0107 -0.6957 -0.7183
vn 0.5888 -0.5536 -0.5889
vn -0.5836 -0.5752 -0.5732
vn -0.7093 -0.7048 -0.0105
vn -0.7122 -0.7020 0.0024
vn -0.7212 -0.6924 0.0210
vn -0.5821 -0.5444 0.6040
vn -0.7643 0.6445 0.0191
vn -0.5893 0.8078 0.0142
vn -0.1620 0.9789 0.1241
vn -0.0169 0.9724 0.2329
vn -0.0096 0.9791 0.2031
vn 0.0119 0.9935 0.1129
vn 0.1751 0.9744 0.1411
vn 0.2255 0.9740 0.0203
vn 0.3022 0.9532 -0.0089
vn 0.2572 0.9660 -0.0251
vn 0.1327 0.9815 -0.1379
vn 0.0264 0.9689 -0.2460
vn 0.0014 0.9665 -0.2568
vn -0.0238 0.9823 -0.1858
vn -0.0596 0.9967 -0.0550
vn -0.4823 0.8759 0.0053
vn 0.3888 0.8385 -0.3817
vn 0.5054 0.8373 -0.2084
vn 0.1998 0.8279 0.5240
vn -0.0034 0.8259 0.5638
vn 0.1995 0.8430 -0.4996
vn 0.3883 0.8347 0.3905
vn -0.5366 0.8162 0.2142
vn -0.5794 0.8150 0.0038
vn -0.0006 0.8412 -0.5407
vn 0.5042 0.8395 0.2024
vn -0.4012 0.8244 0.3992
vn -0.1979 0.8454 -0.4961
vn 0.5458 0.8379 -0.0023
vn -0.2043 0.8321 0.5155
vn -0.3915 0.8359 -0.3847
vn -0.5248 0.8257 -0.2070
vn -0.5231 0.6687 0.5283
vn -0.6981 0.6578 0.2827
vn 0.5309 0.6625 -0.5284
vn 0.7044 0.6475 -0.2907
vn -0.2835 0.6495 0.7055
vn 0.2814 0.6589 -0.6976
vn -0.0057 0.6499 0.7599
vn -0.2835 0.6517 -0.7035
vn -0.0013 0.6485 -0.7612
vn 0.2716 0.6711 0.6897
vn -0.5252 0.6700 -0.5246
vn 0.5112 0.6917 0.5102
vn -0.6965 0.6601 -0.2811
vn 0.6827 0.6761 0.2770
vn -0.7578 0.6524 0.0021
vn 0.7511 0.6602 0.0007
vn 0.8179 -0.4632 0.3413
vn 0.6240 -0.4646 0.6283
vn -0.8753 -0.4836 0.0012
vn -0.8123 -0.4778 -0.3343
vn 0.8867 -0.4622 0.0038
vn -0.8114 -0.4774 0.3372
vn 0.8233 -0.4549 -0.3393
vn -0.6209 -0.4752 0.6234
vn 0.6222 -0.4714 -0.6251
vn -0.3365 -0.4739 0.8137
vn 0.3328 -0.4916 -0.8047
vn 0.0012 -0.4722 0.8815
vn -0.3329 -0.4927 -0.8040
vn 0.0003 -0.4993 -0.8664
vn 0.3389 -0.4646 0.8181
vn -0.6206 -0.4811 -0.6191
vn -0.3385 -0.4515 -0.8255
vn -0.0022 -0.4473 -0.8943
vn 0.3326 -0.4738 -0.8154
vn 0.3483 -0.4147 0.8406
vn 0.0064 -0.4290 0.9033
vn -0.6225 -0.4731 -0.6233
vn 0.6271 -0.4414 0.6418
vn -0.8105 -0.4810 -0.3341
vn 0.8136 -0.4719 0.3395
vn -0.8806 -0.4738 0.0028
vn 0.8853 -0.4650 0.0011
vn -0.8131 -0.4751 0.3363
vn 0.8188 -0.4653 -0.3362
vn -0.6207 -0.4718 0.6261
vn 0.6228 -0.4797 -0.6181
vn -0.3379 -0.4583 0.8220
vn -0.6778 0.2603 0.6876
vn -0.8944 0.2553 0.3672
vn 0.6855 0.2615 -0.6795
vn 0.8945 0.2541 -0.3678
vn -0.3638 0.2709 0.8912
vn 0.3567 0.2803 -0.8911
vn 0.0118 0.2914 0.9565
vn -0.3586 0.2940 -0.8859
vn -0.0049 0.2903 -0.9569
vn 0.3649 0.3039 0.8800
vn -0.6765 0.2783 -0.6818
vn 0.6631 0.2871 0.6913
vn -0.8904 0.2664 -0.3690
vn 0.8919 0.2557 0.3730
vn -0.9669 0.2552 0.0047
vn 0.9693 0.2458 0.0007
vn 0.5495 0.8009 0.2379
vn 0.4154 0.7889 0.4528
vn -0.6021 0.7984 0.0056
vn -0.5466 0.8048 -0.2313
vn 0.6044 0.7966 0.0027
vn -0.5519 0.8024 0.2269
vn 0.5528 0.8008 -0.2304
vn -0.4090 0.8083 0.4235
vn 0.4308 0.7942 -0.4284
vn -0.2226 0.8045 0.5506
vn 0.2300 0.7776 -0.5852
vn 0.0147 0.7897 0.6133
vn -0.2324 0.7853 -0.5737
vn -0.0035 0.7640 -0.6451
vn 0.2446 0.7743 0.5835
vn -0.4256 0.7958 -0.4307
vn -0.0047 0.6345 -0.7729
vn 0.2871 0.6381 -0.7144
vn 0.2905 0.6579 0.6948
vn 0.0090 0.6925 0.7214
vn -0.5265 0.6628 -0.5324
vn -0.2914 0.6509 -0.7010
vn 0.5124 0.6666 0.5414
vn -0.6779 0.6729 -0.2961
vn 0.6706 0.6830 0.2894
vn -0.7414 0.6711 -0.0031
vn 0.7239 0.6899 -0.0006
vn -0.6872 0.6684 0.2846
vn 0.6762 0.6777 -0.2888
vn -0.5040 0.6872 0.5231
vn 0.5313 0.6592 -0.5321
vn -0.2705 0.6950 0.6661
vn 0.9279 -0.1316 -0.3488
vn 0.7341 -0.1072 -0.6706
vn 0.7072 -0.1416 -0.6927
vn 0.9143 -0.1606 -0.3717
vn -0.7349 -0.1113 0.6689
vn -0.4131 -0.0840 0.9068
vn -0.3824 -0.1225 0.9158
vn -0.7066 -0.1500 0.6915
vn 0.4117 -0.0801 -0.9078
vn 0.3884 -0.1353 -0.9115
vn 0.0056 -0.0706 0.9975
vn 0.0002 -0.1238 0.9923
vn -0.0002 -0.0684 -0.9977
vn -0.4107 -0.0792 -0.9083
vn -0.3869 -0.1346 -0.9122
vn -0.0017 -0.1336 -0.9910
vn 0.4223 -0.0865 0.9023
vn 0.3887 -0.1404 0.9106
vn -0.7333 -0.1056 -0.6717
vn -0.7078 -0.1408 -0.6922
vn 0.7360 -0.1131 0.6674
vn 0.7112 -0.1585 0.6849
vn -0.9269 -0.1273 -0.3529
vn -0.9151 -0.1563 -0.3715
vn 0.9258 -0.1309 0.3544
vn 0.9119 -0.1772 0.3701
vn -0.9908 -0.1351 -0.0004
vn -0.9840 -0.1780 -0.0054
vn 0.9902 -0.1395 0.0059
vn 0.9837 -0.1796 0.0052
vn -0.9277 -0.1295 0.3501
vn -0.9142 -0.1782 0.3639
vn -0.9154 0.1252 0.3825
vn -0.6912 0.1186 0.7128
vn -0.6886 0.2211 0.6906
vn -0.8931 0.2707 0.3593
vn 0.9897 0.1431 0.0012
vn 0.9170 0.1256 -0.3785
vn 0.8977 0.2591 -0.3564
vn 0.9597 0.2810 0.0030
vn -0.9899 0.1416 -0.0087
vn -0.9555 0.2947 -0.0120
vn 0.9120 0.1415 0.3851
vn 0.8930 0.2634 0.3647
vn -0.9106 0.1473 -0.3861
vn -0.8903 0.2713 -0.3656
vn 0.6930 0.1328 0.7085
vn 0.6926 0.2197 0.6870
vn -0.7041 0.1261 -0.6988
vn -0.7037 0.2224 -0.6748
vn 0.3742 0.1358 0.9173
vn 0.3777 0.1802 0.9082
vn -0.3880 0.0965 -0.9166
vn -0.3984 0.1747 -0.9004
vn 0.0011 0.1393 0.9902
vn 0.0007 0.1652 0.9862
vn 0.3804 0.1033 -0.9190
vn -0.0056 0.0902 -0.9959
vn -0.0079 0.1451 -0.9894
vn 0.3905 0.1593 -0.9067
vn -0.3699 0.1276 0.9203
vn -0.3715 0.1794 0.9109
vn 0.7060 0.1114 -0.6994
vn 0.7048 0.2102 -0.6775
vn -0.9087 0.2439 0.3385
vn -0.7169 0.2064 0.6659
vn -0.7271 0.0622 0.6837
vn -0.9388 0.0560 0.3397
vn 0.9714 0.2373 0.0038
vn 0.9088 0.2347 -0.3447
vn 0.9345 0.0488 -0.3525
vn 0.9990 0.0436 0.0034
vn -0.9670 0.2545 -0.0117
vn -0.9985 0.0533 -0.0072
vn 0.9074 0.2310 0.3510
vn 0.9341 0.0474 0.3537
vn -0.9070 0.2387 -0.3469
vn -0.9372 0.0486 -0.3453
vn 0.7172 0.2065 0.6655
vn 0.7450 0.0518 0.6651
vn -0.7221 0.2159 -0.6572
vn -0.7448 0.0468 -0.6656
vn 0.3940 0.1770 0.9019
vn 0.4138 0.0517 0.9089
vn -0.3925 0.2300 -0.8905
vn -0.3814 0.0807 -0.9209
vn 0.0038 0.1611 0.9869
vn -0.0231 0.0569 0.9981
vn 0.3848 0.2308 -0.8937
vn -0.0145 0.2534 -0.9672
vn -0.0097 0.1189 -0.9929
vn 0.3777 0.0970 -0.9208
vn -0.3890 0.1669 0.9059
vn -0.4099 0.0638 0.9098
vn 0.7238 0.2200 -0.6540
vn 0.7452 0.0604 -0.6641
vn -0.7050 0.0507 0.7074
vn -0.9394 0.0421 0.3403
vn 0.9371 0.0459 -0.3459
vn 0.9989 0.0473 0.0006
vn -0.9991 0.0408 -0.0017
vn 0.9373 0.0447 0.3456
vn -0.9385 0.0403 -0.3428
vn 0.7512 0.0415 0.6587
vn -0.7451 0.0411 -0.6656
vn 0.4292 0.0374 0.9024
vn -0.4059 0.0312 -0.9134
vn -0.0629 0.0436 0.9970
vn 0.0010 0.0219 -0.9998
vn 0.4057 0.0339 -0.9133
vn -0.4266 0.0534 0.9028
vn 0.7450 0.0443 -0.6656
vn -0.7257 0.0413 0.6867
vn -0.9383 0.0440 0.3430
vn 0.9395 0.0443 -0.3396
vn 0.9990 0.0439 -0.0020
vn -0.9991 0.0427 0.0008
vn 0.9396 0.0443 0.3392
vn -0.9374 0.0440 -0.3454
vn 0.7534 0.0457 0.6559
vn -0.7473 0.0450 -0.6629
vn 0.4375 0.0473 0.8980
vn -0.4285 0.0468 -0.9023
vn -0.0368 0.0431 0.9984
vn 0.0040 0.0486 -0.9988
vn 0.4288 0.0468 -0.9022
vn -0.4350 0.0364 0.8997
vn 0.7493 0.0451 -0.6607
vn -0.7494 0.0233 0.6617
vn -0.9377 0.0238 0.3466
vn 0.9401 0.0218 -0.3401
vn 0.9997 0.0227 0.0002
vn -0.9997 0.0244 0.0005
vn 0.9389 0.0261 0.3432
vn -0.9370 0.0239 -0.3484
vn 0.7517 0.0294 0.6588
vn -0.7501 0.0239 -0.6608
vn 0.4392 0.0306 0.8978
vn -0.4241 0.0246 -0.9053
vn 0.0008 0.0287 0.9996
vn 0.0024 0.0237 -0.9997
vn 0.4250 0.0231 -0.9049
vn -0.4338 0.0248 0.9006
vn 0.7518 0.0227 -0.6590
vn -0.7143 -0.6997 -0.0115
vn -0.6559 -0.7018 -0.2779
vn 0.7838 -0.6209 0.0041
vn 0.7074 -0.6513 0.2745
vn -0.6757 -0.6819 0.2801
vn 0.7001 -0.6559 -0.2822
vn -0.5145 -0.6751 0.5287
vn 0.5093 -0.6941 -0.5087
vn -0.2725 -0.6692 0.6913
vn 0.2771 -0.6851 -0.6737
vn -0.0030 -0.6564 0.7544
vn -0.2801 -0.6711 -0.6864
vn -0.0053 -0.6716 -0.7408
vn 0.2703 -0.6683 0.6930
vn -0.5031 -0.6972 -0.5108
vn 0.5143 -0.6958 0.5013
vn -0.2680 -0.6954 0.6667
vn -0.5080 -0.6865 0.5203
vn 0.2677 -0.6959 -0.6664
vn 0.5008 -0.7116 -0.4928
vn -0.0067 -0.6993 0.7147
vn -0.2704 -0.6871 -0.6743
vn -0.0058 -0.6695 -0.7428
vn 0.2478 -0.7224 0.6456
vn -0.4908 -0.7145 -0.4985
vn 0.4904 -0.7309 0.4747
vn -0.6454 -0.7148 -0.2691
vn 0.6658 -0.7023 0.2519
vn -0.7163 -0.6977 -0.0092
vn 0.7371 -0.6758 -0.0012
vn -0.6690 -0.6884 0.2802
vn 0.6712 -0.6924 -0.2645
vn 0.9866 -0.1627 -0.0107
vn 0.9154 -0.1596 0.3695
vn -0.9202 -0.0894 0.3810
vn -0.9941 -0.1084 -0.0027
vn 0.9188 -0.1178 -0.3767
vn -0.7008 -0.1251 0.7023
vn 0.7082 -0.0973 -0.6992
vn -0.3739 -0.1565 0.9142
vn 0.3723 -0.0890 -0.9238
vn -0.0114 -0.1582 0.9873
vn -0.3734 -0.0846 -0.9238
vn -0.0041 -0.0818 -0.9966
vn 0.3711 -0.1384 0.9182
vn -0.6996 -0.1017 -0.7072
vn 0.7088 -0.1245 0.6943
vn -0.9154 -0.1270 -0.3818
vn -0.6369 0.4040 -0.6566
vn -0.3461 0.3951 -0.8509
vn 0.6407 0.4345 0.6330
vn 0.3437 0.4345 0.8325
vn -0.8442 0.3985 -0.3584
vn 0.8412 0.4124 0.3496
vn -0.9162 0.4006 0.0094
vn 0.9218 0.3871 -0.0184
vn -0.8448 0.4069 0.3472
vn 0.8527 0.3835 -0.3547
vn -0.6568 0.3984 0.6402
vn 0.6486 0.4066 -0.6434
vn -0.3468 0.3855 0.8550
vn 0.3399 0.4088 -0.8469
vn -0.0069 0.3981 0.9173
vn -0.0033 0.3890 -0.9212
vn -0.3367 0.4641 0.8192
vn -0.6359 0.4624 0.6179
vn 0.3430 0.4016 -0.8491
vn 0.6455 0.4155 -0.6409
vn 0.0035 0.4574 0.8892
vn -0.3510 0.4073 -0.8431
vn -0.0049 0.3969 -0.9178
vn 0.3411 0.4739 0.8118
vn -0.6232 0.4566 -0.6348
vn 0.6236 0.4624 0.6303
vn -0.7972 0.4969 -0.3428
vn 0.8198 0.4579 0.3438
vn -0.8850 0.4656 0.0020
vn 0.8940 0.4476 -0.0183
vn -0.8359 0.4267 0.3451
vn 0.8391 0.4183 -0.3477
vn 0.9201 0.0199 0.3912
vn 0.9998 -0.0189 -0.0037
vn 0.8540 -0.5202 0.0002
vn 0.7777 -0.5291 0.3393
vn -0.9978 -0.0648 -0.0127
vn -0.9207 -0.0517 0.3867
vn -0.7772 -0.5360 0.3297
vn -0.8263 -0.5631 0.0045
vn 0.9246 -0.0406 -0.3786
vn 0.7990 -0.5029 -0.3297
vn -0.7086 -0.0435 0.7042
vn -0.5965 -0.5368 0.5966
vn 0.7119 -0.0463 -0.7007
vn 0.6206 -0.5075 -0.5978
vn -0.3781 -0.0212 0.9255
vn -0.3053 -0.5180 0.7990
vn 0.3797 -0.0587 -0.9232
vn 0.3329 -0.5263 -0.7824
vn 0.0260 0.0357 0.9990
vn 0.0331 -0.5256 0.8501
vn -0.0065 -0.0680 -0.9977
vn -0.3914 -0.0620 -0.9181
vn -0.3245 -0.5537 -0.7669
vn -0.0051 -0.5429 -0.8397
vn 0.3860 0.0689 0.9199
vn 0.3161 -0.5548 0.7696
vn -0.7100 -0.0556 -0.7020
vn -0.5685 -0.5854 -0.5780
vn 0.6928 0.0523 0.7192
vn 0.5748 -0.5542 0.6020
vn -0.9167 -0.0627 -0.3946
vn -0.7385 -0.5954 -0.3164
vn 0.5290 -0.6618 0.5311
vn 0.2770 -0.6825 0.6763
vn -0.7400 -0.5983 -0.3072
vn -0.5546 -0.6029 -0.5734
vn 0.7082 -0.6403 0.2972
vn -0.8083 -0.5886 0.0132
vn 0.7853 -0.6190 -0.0074
vn -0.7435 -0.5914 0.3121
vn 0.7319 -0.6102 -0.3032
vn -0.5675 -0.5913 0.5730
vn 0.5705 -0.6116 -0.5481
vn -0.2896 -0.6126 0.7354
vn 0.3136 -0.6133 -0.7249
vn 0.0022 -0.6605 0.7508
vn -0.3062 -0.6063 -0.7339
vn -0.0042 -0.6127 -0.7903
vn 0.3864 -0.2418 -0.8900
vn 0.6959 -0.2359 -0.6782
vn -0.0046 -0.2198 0.9755
vn -0.3732 -0.2101 0.9036
vn -0.3830 -0.2334 -0.8938
vn -0.0033 -0.2583 -0.9660
vn 0.3766 -0.2044 0.9035
vn -0.6923 -0.1812 -0.6985
vn 0.6944 -0.1943 0.6929
vn -0.9126 -0.1588 -0.3766
vn 0.9049 -0.2016 0.3748
vn -0.9854 -0.1702 0.0082
vn 0.9753 -0.2207 -0.0049
vn -0.9073 -0.1848 0.3777
vn 0.8975 -0.2402 -0.3699
vn -0.6913 -0.1901 0.6971
vn -0.6965 -0.6724 0.2507
vn -0.7862 -0.6179 0.0061
vn 0.6101 -0.7500 -0.2555
vn 0.6452 -0.7640 -0.0029
vn -0.4772 -0.7404 0.4734
vn 0.4832 -0.7459 -0.4584
vn -0.2552 -0.7359 0.6271
vn 0.2785 -0.6996 -0.6580
vn -0.0001 -0.7236 0.6902
vn -0.2889 -0.6912 -0.6623
vn 0.0009 -0.6562 -0.7545
vn 0.2648 -0.7215 0.6397
vn -0.4983 -0.7172 -0.4870
vn 0.4803 -0.7338 0.4804
vn -0.6985 -0.6678 -0.2569
vn 0.6127 -0.7439 0.2669
vn -0.9962 -0.0828 -0.0263
vn -0.7001 -0.0829 -0.7092
vn -0.5437 -0.6460 -0.5357
vn -0.7190 -0.6943 -0.0293
vn 0.0138 -0.0521 -0.9985
vn 0.7090 -0.0502 -0.7034
vn 0.5403 -0.6443 -0.5412
vn 0.0074 -0.7391 -0.6735
vn 0.9999 -0.0048 0.0121
vn 0.7082 -0.0079 0.7059
vn 0.5430 -0.6403 0.5433
vn 0.6839 -0.7294 0.0160
vn -0.0187 -0.0200 0.9996
vn -0.7080 -0.0388 0.7051
vn -0.5506 -0.6296 0.5481
vn -0.0417 -0.7129 0.7000
vn 0.0090 0.9999 -0.0013
vn 0.0145 0.7523 0.6587
vn 0.5410 0.6464 0.5380
vn 0.6556 0.7550 0.0093
vn -0.0120 0.9997 0.0208
vn -0.0062 1.0000 -0.0006
vn 0.6553 0.7552 0.0151
vn 0.6705 0.7419 0.0067
vn 0.9996 -0.0283 -0.0061
vn 0.9998 -0.0153 0.0071
vn 0.7243 -0.6895 0.0012
vn 0.6782 -0.7348 -0.0081
vn -0.9984 -0.0468 0.0302
vn -0.9971 -0.0758 0.0053
vn -0.9343 -0.3559 -0.0178
vn -0.7158 -0.6973 0.0371
vn 0.0152 0.9999 -0.0022
vn 0.0195 0.9996 -0.0174
vn 0.0202 0.9996 -0.0194
vn 0.0053 0.9998 0.0190
vn 0.0005 0.9998 0.0201
vn -0.0154 0.7431 0.6690
vn 0.0117 0.7483 0.6632
vn 0.0204 0.9998 0.0030
vn 0.0088 -0.0108 0.9999
vn 0.0052 -0.0113 0.9999
vn 0.0074 -0.6954 0.7185
vn 0.0078 -0.7390 0.6736
vn -0.0263 -0.0610 -0.9978
vn -0.0036 -0.0591 -0.9982
vn -0.0030 -0.6763 -0.7366
vn -0.0431 -0.7112 -0.7016
vn -0.0167 0.7374 -0.6752
vn -0.0039 0.7479 -0.6638
vn 0.0074 0.7420 -0.6703
vn 0.5636 0.6147 -0.5518
vn -0.5550 0.6173 -0.5576
vn -0.6650 0.7461 -0.0316
vn -0.6730 0.7396 0.0015
vn -0.6783 0.7336 0.0421
vn -0.5498 0.6266 0.5523
vn -0.7002 -0.7135 -0.0238
vn -0.4387 -0.8983 -0.0263
vn -0.0675 -0.9955 0.0669
vn -0.0007 -0.9933 0.1159
vn 0.0061 -0.9922 0.1240
vn 0.0015 -0.9959 0.0905
vn 0.0186 -0.9995 0.0266
vn 0.1254 -0.9921 0.0075
vn 0.1301 -0.9915 0.0001
vn 0.0822 -0.9966 -0.0026
vn 0.0262 -0.9991 -0.0327
vn 0.0011 -0.9893 -0.1459
vn 0.0035 -0.9534 -0.3016
vn -0.0083 -0.9814 -0.1916
vn -0.1088 -0.9920 -0.0637
vn -0.6113 -0.7913 -0.0140
vn -0.0397 -0.9989 -0.0236
vn -0.0385 -0.9815 -0.1874
vn -0.2309 -0.9730 0.0048
vn -0.3177 -0.9481 -0.0027
vn -0.1755 -0.9843 -0.0160
vn -0.0130 -0.9999 0.0047
vn 0.0026 -0.9998 0.0194
vn 0.0053 -0.9986 0.0532
vn 0.0081 -0.9984 0.0551
vn 0.0122 -0.9998 0.0176
vn 0.0110 -0.9998 0.0157
vn 0.0052 -1.0000 -0.0020
vn 0.0166 -0.9998 -0.0081
vn 0.0183 -0.9998 -0.0123
vn 0.0308 -0.9770 -0.2109
vn -0.0027 -0.9518 -0.3065
s 1
f 1/1/1 19/2/2 55/3/3 11/4/4
f 1/1/1 11/4/4 58/5/5 26/6/6
f 1/1/1 26/6/6 56/7/7 15/8/8
f 1/1/1 15/8/8 57/9/9 19/2/2
f 2/10/10 25/11/11 59/12/12 14/13/13
f 2/10/10 14/13/13 54/14/14 23/15/15
f 2/10/10 23/15/15 52/16/16 10/17/17
f 2/10/10 10/17/17 61/18/18 25/11/11
f 3/19/19 16/20/20 53/21/21 17/22/22
f 3/19/19 17/22/22 60/23/23 27/24/24
f 3/19/19 27/24/24 58/5/5 11/4/4
f 3/19/19 11/4/4 55/3/3 16/20/20
f 4/25/25 9/26/26 49/27/27 32/28/28
f 4/25/25 32/28/28 64/29/29 30/30/30
f 4/25/25 30/30/30 62/31/31 18/32/32
f 4/25/25 18/32/32 51/33/33 9/26/26
f 5/34/34 31/35/35 63/36/36 12/37/37
f 5/34/34 12/37/37 50/38/38 20/39/39
f 5/34/34 20/39/39 64/29/29 32/28/28
f 5/34/34 32/28/28 49/27/27 31/35/35
f 6/40/40 22/41/41 57/42/9 15/43/8
f 6/40/40 15/43/8 56/44/7 24/45/42
f 6/40/40 24/45/42 54/14/14 14/13/13
f 6/40/40 14/13/13 59/12/12 22/41/41
f 7/46/43 13/47/44 51/33/33 18/32/32
f 7/46/43 18/32/32 62/31/31 29/48/45
f 7/46/43 29/48/45 60/23/23 17/22/22
f 7/46/43 17/22/22 53/21/21 13/47/44
f 8/49/46 28/50/47 61/18/18 10/17/17
f 8/49/46 10/17/17 52/16/16 21/51/48
f 8/49/46 21/51/48 50/38/38 12/37/37
f 8/49/46 12/37/37 63/36/36 28/50/47
f 59/12/12 70/52/49 37/53/50 22/41/41
f 13/47/44 34/54/51 66/55/52 51/33/33
f 49/27/27 65/56/53 40/57/54 31/35/35
f 22/41/41 37/53/50 69/58/55 57/42/9
f 66/55/52 33/59/56 9/26/26 51/33/33
f 31/35/35 40/57/54 72/60/57 63/36/36
f 55/3/3 68/61/58 35/62/59 16/20/20
f 9/26/26 33/59/56 65/56/53 49/27/27
f 61/18/18 71/63/60 38/64/61 25/11/11
f 16/20/20 35/62/59 67/65/62 53/21/21
f 69/66/55 36/67/63 19/2/2 57/9/9
f 25/11/11 38/64/61 70/52/49 59/12/12
f 72/60/57 39/68/64 28/50/47 63/36/36
f 19/2/2 36/67/63 68/61/58 55/3/3
f 28/50/47 39/68/64 71/63/60 61/18/18
f 68/69/58 76/70/65 43/71/66 35/72/59
f 37/73/50 45/74/67 77/75/68 69/76/55
f 66/77/52 74/78/69 41/79/70 33/80/56
f 35/72/59 43/71/66 75/81/71 67/82/62
f 73/83/72 48/84/73 40/85/54 65/86/53
f 33/80/56 41/79/70 73/83/72 65/86/53
f 71/87/60 79/88/74 46/89/75 38/90/61
f 40/85/54 48/84/73 80/91/76 72/92/57
f 77/75/68 44/93/77 36/94/63 69/76/55
f 38/90/61 46/89/75 78/95/78 70/96/49
f 75/81/71 42/97/79 34/98/51 67/82/62
f 36/94/63 44/93/77 76/70/65 68/69/58
f 80/91/76 47/99/80 39/100/64 72/92/57
f 34/98/51 42/97/79 74/78/69 66/77/52
f 53/21/21 67/65/62 34/54/51 13/47/44
f 39/100/64 47/99/80 79/88/74 71/87/60
f 590/101/81 103/102/82 84/103/83 580/104/84
f 594/105/85 115/106/86 88/107/87 581/108/88
f 588/109/89 99/110/90 86/111/91 582/112/92
f 592/113/93 109/114/94 82/115/95 579/116/96
f 120/117/97 101/118/98 85/119/99 116/120/100
f 121/121/101 104/122/102 91/123/103 119/124/104
f 589/125/105 106/126/106 92/127/107 583/128/108
f 587/129/109 100/130/110 90/131/111 584/132/112
f 114/133/113 107/134/114 97/135/115 110/136/116
f 113/137/117 102/138/118 95/139/119 112/140/120
f 593/141/121 118/142/122 96/143/123 585/144/124
f 591/145/125 111/146/126 94/147/127 586/148/128
f 110/136/116 97/135/115 102/138/118 113/137/117
f 579/149/96 82/150/95 100/130/110 587/129/109
f 119/124/104 91/123/103 101/118/98 120/117/97
f 583/128/108 92/127/107 99/110/90 588/109/89
f 108/151/129 93/152/130 107/134/114 114/133/113
f 581/153/88 88/154/87 106/126/106 589/125/105
f 117/155/131 87/156/132 104/122/102 121/121/101
f 584/132/112 90/131/111 103/102/82 590/101/81
f 83/157/133 108/151/129 114/133/113 105/158/134
f 89/159/135 110/136/116 113/137/117 98/160/136
f 580/161/84 84/162/83 111/146/126 591/145/125
f 98/160/136 113/137/117 112/140/120 81/163/137
f 105/158/134 114/133/113 110/136/116 89/159/135
f 585/144/124 96/143/123 109/114/94 592/113/93
f 93/152/130 117/155/131 121/121/101 107/134/114
f 97/135/115 119/124/104 120/117/97 102/138/118
f 582/164/92 86/165/91 118/142/122 593/141/121
f 107/134/114 121/121/101 119/124/104 97/135/115
f 102/138/118 120/117/97 116/120/100 95/139/119
f 586/148/128 94/147/127 115/106/86 594/105/85
f 595/166/138 90/167/111 100/168/110 596/169/139
f 596/169/139 100/168/110 82/170/95 597/171/140
f 597/171/140 82/170/95 109/172/94 598/173/141
f 598/173/141 109/172/94 96/174/123 599/175/142
f 599/175/142 96/174/123 118/176/122 600/177/143
f 600/177/143 118/176/122 86/178/91 601/179/144
f 601/179/144 86/178/91 99/180/90 602/181/145
f 602/181/145 99/180/90 92/182/107 603/183/146
f 603/183/146 92/182/107 106/184/106 604/185/147
f 604/185/147 106/184/106 88/186/87 605/187/148
f 605/187/148 88/186/87 115/188/86 606/189/149
f 606/189/149 115/188/86 94/190/127 607/191/150
f 607/191/150 94/190/127 111/192/126 608/193/151
f 608/193/151 111/192/126 84/194/83 609/195/152
f 609/195/152 84/194/83 103/196/82 610/197/153
f 610/197/153 103/196/82 90/167/111 595/166/138
f 70/96/49 78/95/78 45/74/67 37/73/50
f 29/48/45 62/31/31 136/198/154 128/199/155
f 56/7/7 26/6/6 126/200/156 133/201/157
f 62/31/31 30/30/30 129/202/158 136/198/154
f 26/6/6 58/5/5 134/203/159 126/200/156
f 52/16/16 23/15/15 124/204/160 131/205/161
f 30/30/30 64/29/29 137/206/162 129/202/158
f 58/5/5 27/24/24 127/207/163 134/203/159
f 23/15/15 54/14/14 132/208/164 124/204/160
f 64/29/29 20/39/39 122/209/165 137/206/162
f 27/24/24 60/23/23 135/210/166 127/207/163
f 54/14/14 24/45/42 125/211/167 132/208/164
f 20/39/39 50/38/38 130/212/168 122/209/165
f 24/45/42 56/44/7 133/213/157 125/211/167
f 50/38/38 21/51/48 123/214/169 130/212/168
f 21/51/48 52/16/16 131/205/161 123/214/169
f 60/23/23 29/48/45 128/199/155 135/210/166
f 124/215/160 132/216/164 148/217/170 140/218/171
f 128/219/155 136/220/154 152/221/172 144/222/173
f 132/216/164 125/223/167 141/224/174 148/217/170
f 136/220/154 129/225/158 145/226/175 152/221/172
f 125/223/167 133/227/157 149/228/176 141/224/174
f 137/229/162 122/230/165 138/231/177 153/232/178
f 129/225/158 137/229/162 153/232/178 145/226/175
f 133/233/157 126/234/156 142/235/179 149/236/176
f 122/230/165 130/237/168 146/238/180 138/231/177
f 126/234/156 134/239/159 150/240/181 142/235/179
f 130/237/168 123/241/169 139/242/182 146/238/180
f 134/239/159 127/243/163 143/244/183 150/240/181
f 123/241/169 131/245/161 147/246/184 139/242/182
f 127/243/163 135/247/166 151/248/185 143/244/183
f 131/245/161 124/215/160 140/218/171 147/246/184
f 135/247/166 128/219/155 144/222/173 151/248/185
f 150/249/181 143/250/183 159/251/186 166/252/187
f 139/253/182 147/254/184 163/255/188 155/256/189
f 143/250/183 151/257/185 167/258/190 159/251/186
f 147/254/184 140/259/171 156/260/191 163/255/188
f 151/257/185 144/261/173 160/262/192 167/258/190
f 140/259/171 148/263/170 164/264/193 156/260/191
f 144/261/173 152/265/172 168/266/194 160/262/192
f 148/263/170 141/267/174 157/268/195 164/264/193
f 152/265/172 145/269/175 161/270/196 168/266/194
f 141/267/174 149/271/176 165/272/197 157/268/195
f 153/273/178 138/274/177 154/275/198 169/276/199
f 145/269/175 153/273/178 169/276/199 161/270/196
f 149/277/176 142/278/179 158/279/200 165/280/197
f 138/274/177 146/281/180 162/282/201 154/275/198
f 142/278/179 150/249/181 166/252/187 158/279/200
f 146/281/180 139/253/182 155/256/189 162/282/201
f 169/276/199 154/275/198 170/283/202 185/284/203
f 161/270/196 169/276/199 185/284/203 177/285/204
f 165/280/197 158/279/200 174/286/205 181/287/206
f 154/275/198 162/282/201 178/288/207 170/283/202
f 158/279/200 166/252/187 182/289/208 174/286/205
f 162/282/201 155/256/189 171/290/209 178/288/207
f 166/252/187 159/251/186 175/291/210 182/289/208
f 155/256/189 163/255/188 179/292/211 171/290/209
f 159/251/186 167/258/190 183/293/212 175/291/210
f 163/255/188 156/260/191 172/294/213 179/292/211
f 167/258/190 160/262/192 176/295/214 183/293/212
f 156/260/191 164/264/193 180/296/215 172/294/213
f 160/262/192 168/266/194 184/297/216 176/295/214
f 164/264/193 157/268/195 173/298/217 180/296/215
f 168/266/194 161/270/196 177/285/204 184/297/216
f 157/268/195 165/272/197 181/299/206 173/298/217
f 172/300/213 180/301/215 196/302/218 188/303/219
f 176/304/214 184/305/216 200/306/220 192/307/221
f 180/301/215 173/308/217 189/309/222 196/302/218
f 184/305/216 177/310/204 193/311/223 200/306/220
f 173/308/217 181/312/206 197/313/224 189/309/222
f 185/314/203 170/315/202 186/316/225 201/317/226
f 177/310/204 185/314/203 201/317/226 193/311/223
f 181/318/206 174/319/205 190/320/227 197/321/224
f 170/315/202 178/322/207 194/323/228 186/316/225
f 174/319/205 182/324/208 198/325/229 190/320/227
f 178/322/207 171/326/209 187/327/230 194/323/228
f 182/324/208 175/328/210 191/329/231 198/325/229
f 171/326/209 179/330/211 195/331/232 187/327/230
f 175/328/210 183/332/212 199/333/233 191/329/231
f 179/330/211 172/300/213 188/303/219 195/331/232
f 183/332/212 176/304/214 192/307/221 199/333/233
f 198/325/229 191/329/231 207/334/234 214/335/235
f 187/327/230 195/331/232 211/336/236 203/337/237
f 191/329/231 199/333/233 215/338/238 207/334/234
f 195/331/232 188/303/219 204/339/239 211/336/236
f 199/333/233 192/307/221 208/340/240 215/338/238
f 188/303/219 196/302/218 212/341/241 204/339/239
f 192/307/221 200/306/220 216/342/242 208/340/240
f 196/302/218 189/309/222 205/343/243 212/341/241
f 200/306/220 193/311/223 209/344/244 216/342/242
f 189/309/222 197/313/224 213/345/245 205/343/243
f 201/317/226 186/316/225 202/346/246 217/347/247
f 193/311/223 201/317/226 217/347/247 209/344/244
f 197/321/224 190/320/227 206/348/248 213/349/245
f 186/316/225 194/323/228 210/350/249 202/346/246
f 190/320/227 198/325/229 214/335/235 206/348/248
f 194/323/228 187/327/230 203/337/237 210/350/249
f 209/344/244 217/347/247 233/351/250 225/352/251
f 213/349/245 206/348/248 222/353/252 229/354/253
f 202/346/246 210/350/249 226/355/254 218/356/255
f 206/348/248 214/335/235 230/357/256 222/353/252
f 210/350/249 203/337/237 219/358/257 226/355/254
f 214/335/235 207/334/234 223/359/258 230/357/256
f 203/337/237 211/336/236 227/360/259 219/358/257
f 207/334/234 215/338/238 231/361/260 223/359/258
f 211/336/236 204/339/239 220/362/261 227/360/259
f 215/338/238 208/340/240 224/363/262 231/361/260
f 204/339/239 212/341/241 228/364/263 220/362/261
f 208/340/240 216/342/242 232/365/264 224/363/262
f 212/341/241 205/343/243 221/366/265 228/364/263
f 216/342/242 209/344/244 225/352/251 232/365/264
f 205/343/243 213/345/245 229/367/253 221/366/265
f 217/347/247 202/346/246 218/356/255 233/351/250
f 359/368/266 346/369/267 248/370/268 240/371/269
f 360/372/270 347/373/271 237/374/272 244/375/273
f 346/369/267 348/376/274 241/377/275 248/370/268
f 347/373/271 349/378/276 245/379/277 237/374/272
f 361/380/278 350/381/279 234/382/280 249/383/281
f 348/376/274 361/380/278 249/383/281 241/377/275
f 349/384/276 351/385/282 238/386/283 245/387/277
f 350/381/279 352/388/284 242/389/285 234/382/280
f 351/385/282 353/390/286 246/391/287 238/386/283
f 352/388/284 354/392/288 235/393/289 242/389/285
f 353/390/286 355/394/290 239/395/291 246/391/287
f 354/392/288 356/396/292 243/397/293 235/393/289
f 355/394/290 357/398/294 247/399/295 239/395/291
f 356/396/292 358/400/296 236/401/297 243/397/293
f 357/398/294 359/368/266 240/371/269 247/399/295
f 358/400/296 360/372/270 244/375/273 236/401/297
f 658/402/298 644/403/299 252/404/300 265/405/301
f 657/406/302 643/407/303 250/408/304 264/409/305
f 656/410/306 658/402/298 265/405/301 263/411/307
f 655/412/308 657/406/302 264/409/305 262/413/309
f 654/414/310 656/410/306 263/411/307 261/415/311
f 653/416/312 655/412/308 262/413/309 260/417/313
f 652/418/314 654/414/310 261/415/311 259/419/315
f 651/420/316 653/416/312 260/417/313 258/421/317
f 650/422/318 652/418/314 259/419/315 257/423/319
f 649/424/320 651/420/316 258/421/317 255/425/321
f 648/426/322 645/427/323 256/428/324 254/429/325
f 645/427/323 650/422/318 257/423/319 256/428/324
f 647/430/326 649/431/320 255/432/321 253/433/327
f 646/434/328 648/426/322 254/429/325 251/435/329
f 644/403/299 647/430/326 253/433/327 252/404/300
f 643/407/303 646/434/328 251/435/329 250/408/304
f 297/436/330 283/437/331 280/438/332 278/439/333
f 296/440/334 282/441/335 279/442/336 277/443/337
f 295/444/338 297/436/330 278/439/333 276/445/339
f 294/446/340 296/440/334 277/443/337 275/447/341
f 293/448/342 295/444/338 276/445/339 274/449/343
f 292/450/344 294/446/340 275/447/341 273/451/345
f 291/452/346 293/448/342 274/449/343 272/453/347
f 290/454/348 292/450/344 273/451/345 271/455/349
f 289/456/350 291/452/346 272/453/347 270/457/351
f 288/458/352 290/454/348 271/455/349 269/459/353
f 287/460/354 284/461/355 281/462/356 268/463/357
f 284/461/355 289/456/350 270/457/351 281/462/356
f 286/464/358 288/465/352 269/466/353 267/467/359
f 285/468/360 287/460/354 268/463/357 266/469/361
f 283/437/331 286/464/358 267/467/359 280/438/332
f 282/441/335 285/468/360 266/469/361 279/442/336
f 250/408/304 251/435/329 285/468/360 282/441/335
f 252/404/300 253/433/327 286/464/358 283/437/331
f 251/435/329 254/429/325 287/460/354 285/468/360
f 253/433/327 255/432/321 288/465/352 286/464/358
f 256/428/324 257/423/319 289/456/350 284/461/355
f 254/429/325 256/428/324 284/461/355 287/460/354
f 255/425/321 258/421/317 290/454/348 288/458/352
f 257/423/319 259/419/315 291/452/346 289/456/350
f 258/421/317 260/417/313 292/450/344 290/454/348
f 259/419/315 261/415/311 293/448/342 291/452/346
f 260/417/313 262/413/309 294/446/340 292/450/344
f 261/415/311 263/411/307 295/444/338 293/448/342
f 262/413/309 264/409/305 296/440/334 294/446/340
f 263/411/307 265/405/301 297/436/330 295/444/338
f 264/409/305 250/408/304 282/441/335 296/440/334
f 265/405/301 252/404/300 283/437/331 297/436/330
f 278/439/333 280/438/332 312/470/362 310/471/363
f 277/443/337 279/442/336 311/472/364 309/473/365
f 276/445/339 278/439/333 310/471/363 308/474/366
f 275/447/341 277/443/337 309/473/365 307/475/367
f 274/449/343 276/445/339 308/474/366 306/476/368
f 273/451/345 275/447/341 307/475/367 305/477/369
f 272/453/347 274/449/343 306/476/368 304/478/370
f 271/455/349 273/451/345 305/477/369 303/479/371
f 270/457/351 272/453/347 304/478/370 302/480/372
f 269/459/353 271/455/349 303/479/371 301/481/373
f 268/463/357 281/462/356 313/482/374 300/483/375
f 281/462/356 270/457/351 302/480/372 313/482/374
f 267/467/359 269/466/353 301/484/373 299/485/376
f 266/469/361 268/463/357 300/483/375 298/486/377
f 280/438/332 267/467/359 299/485/376 312/470/362
f 279/442/336 266/469/361 298/486/377 311/472/364
f 310/471/363 312/470/362 328/487/378 326/488/379
f 309/473/365 311/472/364 327/489/380 325/490/381
f 308/474/366 310/471/363 326/488/379 324/491/382
f 307/475/367 309/473/365 325/490/381 323/492/383
f 306/476/368 308/474/366 324/491/382 322/493/384
f 305/477/369 307/475/367 323/492/383 321/494/385
f 304/478/370 306/476/368 322/493/384 320/495/386
f 303/479/371 305/477/369 321/494/385 319/496/387
f 302/480/372 304/478/370 320/495/386 318/497/388
f 301/481/373 303/479/371 319/496/387 317/498/389
f 300/483/375 313/482/374 329/499/390 316/500/391
f 313/482/374 302/480/372 318/497/388 329/499/390
f 299/485/376 301/484/373 317/501/389 315/502/392
f 298/486/377 300/483/375 316/500/391 314/503/393
f 312/470/362 299/485/376 315/502/392 328/487/378
f 311/472/364 298/486/377 314/503/393 327/489/380
f 326/488/379 328/487/378 344/504/394 342/505/395
f 325/490/381 327/489/380 343/506/396 341/507/397
f 324/491/382 326/488/379 342/505/395 340/508/398
f 323/492/383 325/490/381 341/507/397 339/509/399
f 322/493/384 324/491/382 340/508/398 338/510/400
f 321/494/385 323/492/383 339/509/399 337/511/401
f 320/495/386 322/493/384 338/510/400 336/512/402
f 319/496/387 321/494/385 337/511/401 335/513/403
f 318/497/388 320/495/386 336/512/402 334/514/404
f 317/498/389 319/496/387 335/513/403 333/515/405
f 316/500/391 329/499/390 345/516/406 332/517/407
f 329/499/390 318/497/388 334/514/404 345/516/406
f 315/502/392 317/501/389 333/518/405 331/519/408
f 314/503/393 316/500/391 332/517/407 330/520/409
f 328/487/378 315/502/392 331/519/408 344/504/394
f 327/489/380 314/503/393 330/520/409 343/506/396
f 342/505/395 344/504/394 360/372/270 358/400/296
f 341/507/397 343/506/396 359/368/266 357/398/294
f 340/508/398 342/505/395 358/400/296 356/396/292
f 339/509/399 341/507/397 357/398/294 355/394/290
f 338/510/400 340/508/398 356/396/292 354/392/288
f 337/511/401 339/509/399 355/394/290 353/390/286
f 336/512/402 338/510/400 354/392/288 352/388/284
f 335/513/403 337/511/401 353/390/286 351/385/282
f 334/514/404 336/512/402 352/388/284 350/381/279
f 333/515/405 335/513/403 351/385/282 349/384/276
f 332/517/407 345/516/406 361/380/278 348/376/274
f 345/516/406 334/514/404 350/381/279 361/380/278
f 331/519/408 333/518/405 349/378/276 347/373/271
f 330/520/409 332/517/407 348/376/274 346/369/267
f 344/504/394 331/519/408 347/373/271 360/372/270
f 343/506/396 330/520/409 346/369/267 359/368/266
f 235/393/289 243/397/293 371/521/410 363/522/411
f 239/395/291 247/399/295 375/523/412 367/524/413
f 243/397/293 236/401/297 364/525/414 371/521/410
f 247/399/295 240/371/269 368/526/415 375/523/412
f 236/401/297 244/375/273 372/527/416 364/525/414
f 240/371/269 248/370/268 376/528/417 368/526/415
f 244/375/273 237/374/272 365/529/418 372/527/416
f 248/370/268 241/377/275 369/530/419 376/528/417
f 237/374/272 245/379/277 373/531/420 365/529/418
f 249/383/281 234/382/280 362/532/421 377/533/422
f 241/377/275 249/383/281 377/533/422 369/530/419
f 245/387/277 238/386/283 366/534/423 373/535/420
f 234/382/280 242/389/285 370/536/424 362/532/421
f 238/386/283 246/391/287 374/537/425 366/534/423
f 242/389/285 235/393/289 363/522/411 370/536/424
f 246/391/287 239/395/291 367/524/413 374/537/425
f 372/538/416 365/539/418 381/540/426 388/541/427
f 376/542/417 369/543/419 385/544/428 392/545/429
f 365/539/418 373/546/420 389/547/430 381/540/426
f 377/548/422 362/549/421 378/550/431 393/551/432
f 369/543/419 377/548/422 393/551/432 385/544/428
f 373/552/420 366/553/423 382/554/433 389/555/430
f 362/549/421 370/556/424 386/557/434 378/550/431
f 366/553/423 374/558/425 390/559/435 382/554/433
f 370/556/424 363/560/411 379/561/436 386/557/434
f 374/558/425 367/562/413 383/563/437 390/559/435
f 363/560/411 371/564/410 387/565/438 379/561/436
f 367/562/413 375/566/412 391/567/439 383/563/437
f 371/564/410 364/568/414 380/569/440 387/565/438
f 375/566/412 368/570/415 384/571/441 391/567/439
f 364/568/414 372/538/416 388/541/427 380/569/440
f 368/570/415 376/542/417 392/545/429 384/571/441
f 383/563/437 391/567/439 407/572/442 399/573/443
f 387/565/438 380/569/440 396/574/444 403/575/445
f 391/567/439 384/571/441 400/576/446 407/572/442
f 380/569/440 388/541/427 404/577/447 396/574/444
f 384/571/441 392/545/429 408/578/448 400/576/446
f 388/541/427 381/540/426 397/579/449 404/577/447
f 392/545/429 385/544/428 401/580/450 408/578/448
f 381/540/426 389/547/430 405/581/451 397/579/449
f 393/551/432 378/550/431 394/582/452 409/583/453
f 385/544/428 393/551/432 409/583/453 401/580/450
f 389/555/430 382/554/433 398/584/454 405/585/451
f 378/550/431 386/557/434 402/586/455 394/582/452
f 382/554/433 390/559/435 406/587/456 398/584/454
f 386/557/434 379/561/436 395/588/457 402/586/455
f 390/559/435 383/563/437 399/573/443 406/587/456
f 379/561/436 387/565/438 403/575/445 395/588/457
f 394/582/452 402/586/455 418/589/458 410/590/459
f 398/584/454 406/587/456 422/591/460 414/592/461
f 402/586/455 395/588/457 411/593/462 418/589/458
f 406/587/456 399/573/443 415/594/463 422/591/460
f 395/588/457 403/575/445 419/595/464 411/593/462
f 399/573/443 407/572/442 423/596/465 415/594/463
f 403/575/445 396/574/444 412/597/466 419/595/464
f 407/572/442 400/576/446 416/598/467 423/596/465
f 396/574/444 404/577/447 420/599/468 412/597/466
f 400/576/446 408/578/448 424/600/469 416/598/467
f 404/577/447 397/579/449 413/601/470 420/599/468
f 408/578/448 401/580/450 417/602/471 424/600/469
f 397/579/449 405/581/451 421/603/472 413/601/470
f 409/583/453 394/582/452 410/590/459 425/604/473
f 401/580/450 409/583/453 425/604/473 417/602/471
f 405/585/451 398/584/454 414/592/461 421/605/472
f 420/606/468 413/607/470 429/608/474 436/609/475
f 424/610/469 417/611/471 433/612/476 440/613/477
f 413/607/470 421/614/472 437/615/478 429/608/474
f 425/616/473 410/617/459 426/618/479 441/619/480
f 417/611/471 425/616/473 441/619/480 433/612/476
f 421/620/472 414/621/461 430/622/481 437/623/478
f 410/617/459 418/624/458 434/625/482 426/618/479
f 414/621/461 422/626/460 438/627/483 430/622/481
f 418/624/458 411/628/462 427/629/484 434/625/482
f 422/626/460 415/630/463 431/631/485 438/627/483
f 411/628/462 419/632/464 435/633/486 427/629/484
f 415/630/463 423/634/465 439/635/487 431/631/485
f 419/632/464 412/636/466 428/637/488 435/633/486
f 423/634/465 416/638/467 432/639/489 439/635/487
f 412/636/466 420/606/468 436/609/475 428/637/488
f 416/638/467 424/610/469 440/613/477 432/639/489
f 627/640/490 628/641/491 455/642/492 447/643/493
f 629/644/494 630/645/495 444/646/496 451/647/497
f 628/641/491 631/648/498 448/649/499 455/642/492
f 630/645/495 632/650/500 452/651/501 444/646/496
f 631/648/498 633/652/502 456/653/503 448/649/499
f 632/650/500 634/654/504 445/655/505 452/651/501
f 633/652/502 635/656/506 449/657/507 456/653/503
f 634/654/504 636/658/508 453/659/509 445/655/505
f 637/660/510 638/661/511 442/662/512 457/663/513
f 635/656/506 637/660/510 457/663/513 449/657/507
f 636/664/508 639/665/514 446/666/515 453/667/509
f 638/661/511 640/668/516 450/669/517 442/662/512
f 639/665/514 641/670/518 454/671/519 446/666/515
f 640/668/516 642/672/520 443/673/521 450/669/517
f 641/670/518 627/640/490 447/643/493 454/671/519
f 642/672/520 629/644/494 451/647/497 443/673/521
f 446/674/515 454/675/519 470/676/522 462/677/523
f 450/678/517 443/679/521 459/680/524 466/681/525
f 454/675/519 447/682/493 463/683/526 470/676/522
f 443/679/521 451/684/497 467/685/527 459/680/524
f 447/682/493 455/686/492 471/687/528 463/683/526
f 451/684/497 444/688/496 460/689/529 467/685/527
f 455/686/492 448/690/499 464/691/530 471/687/528
f 444/688/496 452/692/501 468/693/531 460/689/529
f 448/690/499 456/694/503 472/695/532 464/691/530
f 452/692/501 445/696/505 461/697/533 468/693/531
f 456/694/503 449/698/507 465/699/534 472/695/532
f 445/696/505 453/700/509 469/701/535 461/697/533
f 457/702/513 442/703/512 458/704/536 473/705/537
f 449/698/507 457/702/513 473/705/537 465/699/534
f 453/706/509 446/674/515 462/677/523 469/707/535
f 442/703/512 450/678/517 466/681/525 458/704/536
f 472/695/532 465/699/534 481/708/538 488/709/539
f 461/697/533 469/701/535 485/710/540 477/711/541
f 473/705/537 458/704/536 474/712/542 489/713/543
f 465/699/534 473/705/537 489/713/543 481/708/538
f 469/707/535 462/677/523 478/714/544 485/715/540
f 458/704/536 466/681/525 482/716/545 474/712/542
f 462/677/523 470/676/522 486/717/546 478/714/544
f 466/681/525 459/680/524 475/718/547 482/716/545
f 470/676/522 463/683/526 479/719/548 486/717/546
f 459/680/524 467/685/527 483/720/549 475/718/547
f 463/683/526 471/687/528 487/721/550 479/719/548
f 467/685/527 460/689/529 476/722/551 483/720/549
f 471/687/528 464/691/530 480/723/552 487/721/550
f 460/689/529 468/693/531 484/724/553 476/722/551
f 464/691/530 472/695/532 488/709/539 480/723/552
f 468/693/531 461/697/533 477/711/541 484/724/553
f 483/720/549 476/722/551 492/725/554 499/726/555
f 487/721/550 480/723/552 496/727/556 503/728/557
f 476/722/551 484/724/553 500/729/558 492/725/554
f 480/723/552 488/709/539 504/730/559 496/727/556
f 484/724/553 477/711/541 493/731/560 500/729/558
f 488/709/539 481/708/538 497/732/561 504/730/559
f 477/711/541 485/710/540 501/733/562 493/731/560
f 489/713/543 474/712/542 490/734/563 505/735/564
f 481/708/538 489/713/543 505/735/564 497/732/561
f 485/715/540 478/714/544 494/736/565 501/737/562
f 474/712/542 482/716/545 498/738/566 490/734/563
f 478/714/544 486/717/546 502/739/567 494/736/565
f 482/716/545 475/718/547 491/740/568 498/738/566
f 486/717/546 479/719/548 495/741/569 502/739/567
f 475/718/547 483/720/549 499/726/555 491/740/568
f 479/719/548 487/721/550 503/728/557 495/741/569
f 574/742/570 564/743/571 525/744/572 544/745/573
f 578/746/574 565/747/575 529/748/576 556/749/577
f 572/750/578 566/751/579 527/752/580 540/753/581
f 576/754/582 563/755/583 523/756/584 550/757/585
f 561/758/586 557/759/587 526/760/588 542/761/589
f 562/762/590 560/763/591 532/764/592 545/765/593
f 573/766/594 567/767/595 533/768/596 547/769/597
f 571/770/598 568/771/599 531/772/600 541/773/601
f 555/774/602 551/775/603 538/776/604 548/777/605
f 554/778/606 553/779/607 536/780/608 543/781/609
f 577/782/610 569/783/611 537/784/612 559/785/613
f 575/786/614 570/787/615 535/788/616 552/789/617
f 551/775/603 554/778/606 543/781/609 538/776/604
f 563/790/583 571/770/598 541/773/601 523/791/584
f 560/763/591 561/758/586 542/761/589 532/764/592
f 567/767/595 572/750/578 540/753/581 533/768/596
f 549/792/618 555/774/602 548/777/605 534/793/619
f 565/794/575 573/766/594 547/769/597 529/795/576
f 558/796/620 562/762/590 545/765/593 528/797/621
f 568/771/599 574/742/570 544/745/573 531/772/600
f 524/798/622 546/799/623 555/774/602 549/792/618
f 530/800/624 539/801/625 554/778/606 551/775/603
f 564/802/571 575/786/614 552/789/617 525/803/572
f 539/801/625 522/804/626 553/779/607 554/778/606
f 546/799/623 530/800/624 551/775/603 555/774/602
f 569/783/611 576/754/582 550/757/585 537/784/612
f 534/793/619 548/777/605 562/762/590 558/796/620
f 538/776/604 543/781/609 561/758/586 560/763/591
f 566/805/579 577/782/610 559/785/613 527/806/580
f 548/777/605 538/776/604 560/763/591 562/762/590
f 543/781/609 536/780/608 557/759/587 561/758/586
f 570/787/615 578/746/574 556/749/577 535/788/616
f 611/807/627 612/808/628 541/809/601 531/810/600
f 612/808/628 613/811/629 523/812/584 541/809/601
f 613/811/629 614/813/630 550/814/585 523/812/584
f 614/813/630 615/815/631 537/816/612 550/814/585
f 615/815/631 616/817/632 559/818/613 537/816/612
f 616/817/632 617/819/633 527/820/580 559/818/613
f 617/819/633 618/821/634 540/822/581 527/820/580
f 618/821/634 619/823/635 533/824/596 540/822/581
f 619/823/635 620/825/636 547/826/597 533/824/596
f 620/825/636 621/827/637 529/828/576 547/826/597
f 621/827/637 622/829/638 556/830/577 529/828/576
f 622/829/638 623/831/639 535/832/616 556/830/577
f 623/831/639 624/833/640 552/834/617 535/832/616
f 624/833/640 625/835/641 525/836/572 552/834/617
f 625/835/641 626/837/642 544/838/573 525/836/572
f 626/837/642 611/807/627 531/810/600 544/838/573
f 490/839/563 498/840/566 521/841/643 513/842/644
f 498/840/566 491/843/568 512/844/645 521/841/643
f 491/843/568 499/845/555 520/846/646 512/844/645
f 499/845/555 492/847/554 511/848/647 520/846/646
f 492/847/554 500/849/558 519/850/648 511/848/647
f 500/849/558 493/851/560 510/852/649 519/850/648
f 493/851/560 501/853/562 518/854/650 510/852/649
f 501/853/562 494/855/565 509/856/651 518/854/650
f 494/855/565 502/857/567 517/858/652 509/856/651
f 502/857/567 495/859/569 508/860/653 517/858/652
f 495/859/569 503/861/557 516/862/654 508/860/653
f 503/861/557 496/863/556 507/864/655 516/862/654
f 496/863/556 504/865/559 515/866/656 507/864/655
f 504/865/559 497/867/561 506/868/657 515/866/656
f 497/867/561 505/869/564 514/870/658 506/868/657
f 505/869/564 490/839/563 513/842/644 514/870/658
f 534/871/619 558/872/620 578/746/574 570/787/615
f 526/873/588 557/874/587 577/782/610 566/805/579
f 536/875/608 553/876/607 576/754/582 569/783/611
f 524/877/622 549/878/618 575/786/614 564/802/571
f 530/879/624 546/880/623 574/742/570 568/771/599
f 528/881/621 545/882/593 573/766/594 565/794/575
f 532/883/592 542/884/589 572/750/578 567/767/595
f 522/885/626 539/886/625 571/770/598 563/790/583
f 549/878/618 534/871/619 570/787/615 575/786/614
f 557/874/587 536/875/608 569/783/611 577/782/610
f 539/886/625 530/879/624 568/771/599 571/770/598
f 545/882/593 532/883/592 567/767/595 573/766/594
f 553/876/607 522/887/626 563/755/583 576/754/582
f 542/884/589 526/888/588 566/751/579 572/750/578
f 558/872/620 528/889/621 565/747/575 578/746/574
f 546/880/623 524/890/622 564/743/571 574/742/570
f 93/891/130 586/148/128 594/105/85 117/892/131
f 85/893/99 582/164/92 593/141/121 116/894/100
f 95/895/119 585/144/124 592/113/93 112/896/120
f 83/897/133 580/161/84 591/145/125 108/898/129
f 89/899/135 584/132/112 590/101/81 105/900/134
f 87/901/132 581/153/88 589/125/105 104/902/102
f 91/903/103 583/128/108 588/109/89 101/904/98
f 81/905/137 579/149/96 587/129/109 98/906/136
f 108/898/129 591/145/125 586/148/128 93/891/130
f 116/894/100 593/141/121 585/144/124 95/895/119
f 98/906/136 587/129/109 584/132/112 89/899/135
f 104/902/102 589/125/105 583/128/108 91/903/103
f 112/896/120 592/113/93 579/116/96 81/907/137
f 101/904/98 588/109/89 582/112/92 85/908/99
f 117/892/131 594/105/85 581/108/88 87/909/132
f 105/900/134 590/101/81 580/104/84 83/910/133
f 47/99/80 610/197/153 595/166/138 79/88/74
f 80/91/76 609/195/152 610/197/153 47/99/80
f 48/84/73 608/193/151 609/195/152 80/91/76
f 73/83/72 607/191/150 608/193/151 48/84/73
f 41/79/70 606/189/149 607/191/150 73/83/72
f 74/78/69 605/187/148 606/189/149 41/79/70
f 42/97/79 604/185/147 605/187/148 74/78/69
f 75/81/71 603/183/146 604/185/147 42/97/79
f 43/71/66 602/181/145 603/183/146 75/81/71
f 76/70/65 601/179/144 602/181/145 43/71/66
f 44/93/77 600/177/143 601/179/144 76/70/65
f 77/75/68 599/175/142 600/177/143 44/93/77
f 45/74/67 598/173/141 599/175/142 77/75/68
f 78/95/78 597/171/140 598/173/141 45/74/67
f 46/89/75 596/169/139 597/171/140 78/95/78
f 79/88/74 595/166/138 596/169/139 46/89/75
f 512/844/645 520/846/646 611/807/627 626/837/642
f 521/841/643 512/844/645 626/837/642 625/835/641
f 513/842/644 521/841/643 625/835/641 624/833/640
f 514/870/658 513/842/644 624/833/640 623/831/639
f 506/868/657 514/870/658 623/831/639 622/829/638
f 515/866/656 506/868/657 622/829/638 621/827/637
f 507/864/655 515/866/656 621/827/637 620/825/636
f 516/862/654 507/864/655 620/825/636 619/823/635
f 508/860/653 516/862/654 619/823/635 618/821/634
f 517/858/652 508/860/653 618/821/634 617/819/633
f 509/856/651 517/858/652 617/819/633 616/817/632
f 518/854/650 509/856/651 616/817/632 615/815/631
f 510/852/649 518/854/650 615/815/631 614/813/630
f 519/850/648 510/852/649 614/813/630 613/811/629
f 511/848/647 519/850/648 613/811/629 612/808/628
f 520/846/646 511/848/647 612/808/628 611/807/627
f 427/629/484 435/633/486 629/644/494 642/672/520
f 438/627/483 431/631/485 627/640/490 641/670/518
f 434/625/482 427/629/484 642/672/520 640/668/516
f 430/622/481 438/627/483 641/670/518 639/665/514
f 426/618/479 434/625/482 640/668/516 638/661/511
f 437/623/478 430/622/481 639/665/514 636/664/508
f 433/612/476 441/619/480 637/660/510 635/656/506
f 441/619/480 426/618/479 638/661/511 637/660/510
f 429/608/474 437/615/478 636/658/508 634/654/504
f 440/613/477 433/612/476 635/656/506 633/652/502
f 436/609/475 429/608/474 634/654/504 632/650/500
f 432/639/489 440/613/477 633/652/502 631/648/498
f 428/637/488 436/609/475 632/650/500 630/645/495
f 439/635/487 432/639/489 631/648/498 628/641/491
f 435/633/486 428/637/488 630/645/495 629/644/494
f 431/631/485 439/635/487 628/641/491 627/640/490
f 224/911/262 232/912/264 646/434/328 643/407/303
f 228/913/263 221/914/265 647/430/326 644/403/299
f 232/912/264 225/915/251 648/426/322 646/434/328
f 221/914/265 229/916/253 649/431/320 647/430/326
f 233/917/250 218/918/255 650/422/318 645/427/323
f 225/915/251 233/917/250 645/427/323 648/426/322
f 229/919/253 222/920/252 651/420/316 649/424/320
f 218/918/255 226/921/254 652/418/314 650/422/318
f 222/920/252 230/922/256 653/416/312 651/420/316
f 226/921/254 219/923/257 654/414/310 652/418/314
f 230/922/256 223/924/258 655/412/308 653/416/312
f 219/923/257 227/925/259 656/410/306 654/414/310
f 223/924/258 231/926/260 657/406/302 655/412/308
f 227/925/259 220/927/261 658/402/298 656/410/306
f 231/926/260 224/911/262 643/407/303 657/406/302
f 220/927/261 228/913/263 644/403/299 658/402/298
