# Blender v2.79 (sub 0) OBJ File: 'Pillars.Sculpt.5.blend'
# www.blender.org
o HammerUpperPole_Plane.009
v -0.000000 -0.068441 -0.046640
v -0.000000 0.659105 -0.046640
v 0.017849 -0.068441 -0.043090
v 0.017849 0.659105 -0.043090
v 0.032980 -0.068441 -0.032980
v 0.032980 0.659105 -0.032980
v 0.043090 -0.068441 -0.017849
v 0.043090 0.659105 -0.017849
v 0.046640 -0.068441 0.000000
v 0.046640 0.659105 0.000000
v 0.043090 -0.068441 0.017849
v 0.043090 0.659105 0.017849
v 0.032980 -0.068441 0.032980
v 0.032980 0.659105 0.032980
v 0.017849 -0.068441 0.043090
v 0.017849 0.659105 0.043090
v 0.000000 -0.068441 0.046640
v 0.000000 0.659105 0.046640
v -0.017849 -0.068441 0.043090
v -0.017849 0.659105 0.043090
v -0.032980 -0.068441 0.032980
v -0.032980 0.659105 0.032980
v -0.043090 -0.068441 0.017849
v -0.043090 0.659105 0.017849
v -0.046640 -0.068441 0.000000
v -0.046640 0.659105 0.000000
v -0.043090 -0.068441 -0.017849
v -0.043090 0.659105 -0.017849
v -0.032980 -0.068441 -0.032980
v -0.032980 0.659105 -0.032980
v -0.017849 -0.068441 -0.043090
v -0.017849 0.659105 -0.043090
v -0.000000 0.035494 -0.046640
v -0.000000 0.139429 -0.046640
v -0.000000 0.243365 -0.046640
v -0.000000 0.347300 -0.046640
v -0.000000 0.451235 -0.046640
v -0.000000 0.555170 -0.046640
v 0.017849 0.555170 -0.043090
v 0.017849 0.451235 -0.043090
v 0.017849 0.347300 -0.043090
v 0.017849 0.243364 -0.043090
v 0.017849 0.139429 -0.043090
v 0.017849 0.035494 -0.043090
v 0.032980 0.555170 -0.032980
v 0.032980 0.451235 -0.032980
v 0.032980 0.347300 -0.032980
v 0.032980 0.243364 -0.032980
v 0.032980 0.139429 -0.032980
v 0.032980 0.035494 -0.032980
v 0.043090 0.555170 -0.017849
v 0.043090 0.451235 -0.017849
v 0.043090 0.347300 -0.017849
v 0.043090 0.243364 -0.017849
v 0.043090 0.139429 -0.017849
v 0.043090 0.035494 -0.017849
v 0.046640 0.555170 0.000000
v 0.046640 0.451235 0.000000
v 0.046640 0.347300 0.000000
v 0.046640 0.243364 0.000000
v 0.046640 0.139429 0.000000
v 0.046640 0.035494 0.000000
v 0.043090 0.555170 0.017849
v 0.043090 0.451235 0.017849
v 0.043090 0.347300 0.017849
v 0.043090 0.243364 0.017849
v 0.043090 0.139429 0.017849
v 0.043090 0.035494 0.017849
v 0.032980 0.555170 0.032980
v 0.032980 0.451235 0.032980
v 0.032980 0.347300 0.032980
v 0.032980 0.243364 0.032980
v 0.032980 0.139429 0.032980
v 0.032980 0.035494 0.032980
v 0.017849 0.555170 0.043090
v 0.017849 0.451235 0.043090
v 0.017849 0.347300 0.043090
v 0.017849 0.243364 0.043090
v 0.017849 0.139429 0.043090
v 0.017849 0.035494 0.043090
v 0.000000 0.555170 0.046640
v 0.000000 0.451235 0.046640
v 0.000000 0.347300 0.046640
v 0.000000 0.243364 0.046640
v 0.000000 0.139429 0.046640
v 0.000000 0.035494 0.046640
v -0.017849 0.555170 0.043090
v -0.017849 0.451235 0.043090
v -0.017849 0.347300 0.043090
v -0.017849 0.243364 0.043090
v -0.017849 0.139429 0.043090
v -0.017849 0.035494 0.043090
v -0.032980 0.555170 0.032980
v -0.032980 0.451235 0.032980
v -0.032980 0.347300 0.032980
v -0.032980 0.243364 0.032980
v -0.032980 0.139429 0.032980
v -0.032980 0.035494 0.032980
v -0.043090 0.555170 0.017849
v -0.043090 0.451235 0.017849
v -0.043090 0.347300 0.017849
v -0.043090 0.243364 0.017849
v -0.043090 0.139429 0.017849
v -0.043090 0.035494 0.017849
v -0.046640 0.555170 0.000000
v -0.046640 0.451235 0.000000
v -0.046640 0.347300 0.000000
v -0.046640 0.243364 0.000000
v -0.046640 0.139429 0.000000
v -0.046640 0.035494 0.000000
v -0.043090 0.555170 -0.017849
v -0.043090 0.451235 -0.017849
v -0.043090 0.347300 -0.017849
v -0.043090 0.243364 -0.017849
v -0.043090 0.139429 -0.017849
v -0.043090 0.035494 -0.017849
v -0.032980 0.555170 -0.032980
v -0.032980 0.451235 -0.032980
v -0.032980 0.347300 -0.032980
v -0.032980 0.243364 -0.032980
v -0.032980 0.139429 -0.032980
v -0.032980 0.035494 -0.032980
v -0.017849 0.555170 -0.043090
v -0.017849 0.451235 -0.043090
v -0.017849 0.347300 -0.043090
v -0.017849 0.243364 -0.043090
v -0.017849 0.139429 -0.043090
v -0.017849 0.035494 -0.043090
v 0.008924 -0.068441 -0.044865
v -0.000000 0.607138 -0.046640
v 0.008924 0.659105 -0.044865
v 0.017849 -0.016473 -0.043090
v 0.025414 -0.068441 -0.038035
v 0.025414 0.659105 -0.038035
v 0.032980 -0.016473 -0.032980
v 0.038035 -0.068441 -0.025414
v 0.038035 0.659105 -0.025414
v 0.043090 -0.016473 -0.017849
v 0.044865 -0.068441 -0.008924
v 0.044865 0.659105 -0.008924
v 0.046640 -0.016473 0.000000
v 0.044865 -0.068441 0.008924
v 0.044865 0.659105 0.008924
v 0.043090 -0.016473 0.017849
v 0.038035 -0.068441 0.025414
v 0.038035 0.659105 0.025414
v 0.032980 -0.016473 0.032980
v 0.025414 -0.068441 0.038035
v 0.025414 0.659105 0.038035
v 0.017849 -0.016473 0.043090
v 0.008924 -0.068441 0.044865
v 0.008924 0.659105 0.044865
v 0.000000 -0.016473 0.046640
v -0.008924 -0.068441 0.044865
v -0.008924 0.659105 0.044865
v -0.017849 -0.016473 0.043090
v -0.025414 -0.068441 0.038035
v -0.025414 0.659105 0.038035
v -0.032980 -0.016473 0.032980
v -0.038035 -0.068441 0.025414
v -0.038035 0.659105 0.025414
v -0.043090 -0.016473 0.017849
v -0.044865 -0.068441 0.008924
v -0.044865 0.659105 0.008924
v -0.046640 -0.016473 0.000000
v -0.044865 -0.068441 -0.008924
v -0.044865 0.659105 -0.008924
v -0.043090 -0.016473 -0.017849
v -0.038035 -0.068441 -0.025414
v -0.038035 0.659105 -0.025414
v -0.032980 -0.016473 -0.032980
v -0.025414 -0.068441 -0.038035
v -0.025414 0.659105 -0.038035
v -0.017849 -0.016473 -0.043090
v -0.008924 -0.068441 -0.044865
v -0.008924 0.659105 -0.044865
v -0.000000 -0.016473 -0.046640
v -0.000000 0.087462 -0.046640
v -0.000000 0.191397 -0.046640
v -0.000000 0.295332 -0.046640
v -0.000000 0.399267 -0.046640
v -0.000000 0.503203 -0.046640
v 0.017849 0.607138 -0.043090
v 0.017849 0.503203 -0.043090
v 0.017849 0.399267 -0.043090
v 0.017849 0.295332 -0.043090
v 0.017849 0.191397 -0.043090
v 0.017849 0.087462 -0.043090
v 0.032980 0.607138 -0.032980
v 0.032980 0.503203 -0.032980
v 0.032980 0.399267 -0.032980
v 0.032980 0.295332 -0.032980
v 0.032980 0.191397 -0.032980
v 0.032980 0.087462 -0.032980
v 0.043090 0.607138 -0.017849
v 0.043090 0.503203 -0.017849
v 0.043090 0.399267 -0.017849
v 0.043090 0.295332 -0.017849
v 0.043090 0.191397 -0.017849
v 0.043090 0.087462 -0.017849
v 0.046640 0.607138 0.000000
v 0.046640 0.503203 0.000000
v 0.046640 0.399267 0.000000
v 0.046640 0.295332 0.000000
v 0.046640 0.191397 0.000000
v 0.046640 0.087462 0.000000
v 0.043090 0.607138 0.017849
v 0.043090 0.503203 0.017849
v 0.043090 0.399267 0.017849
v 0.043090 0.295332 0.017849
v 0.043090 0.191397 0.017849
v 0.043090 0.087462 0.017849
v 0.032980 0.607138 0.032980
v 0.032980 0.503203 0.032980
v 0.032980 0.399267 0.032980
v 0.032980 0.295332 0.032980
v 0.032980 0.191397 0.032980
v 0.032980 0.087462 0.032980
v 0.017849 0.607138 0.043090
v 0.017849 0.503203 0.043090
v 0.017849 0.399267 0.043090
v 0.017849 0.295332 0.043090
v 0.017849 0.191397 0.043090
v 0.017849 0.087462 0.043090
v 0.000000 0.607138 0.046640
v 0.000000 0.503203 0.046640
v 0.000000 0.399267 0.046640
v 0.000000 0.295332 0.046640
v 0.000000 0.191397 0.046640
v 0.000000 0.087462 0.046640
v -0.017849 0.607138 0.043090
v -0.017849 0.503203 0.043090
v -0.017849 0.399267 0.043090
v -0.017849 0.295332 0.043090
v -0.017849 0.191397 0.043090
v -0.017849 0.087462 0.043090
v -0.032980 0.607138 0.032980
v -0.032980 0.503203 0.032980
v -0.032980 0.399267 0.032980
v -0.032980 0.295332 0.032980
v -0.032980 0.191397 0.032980
v -0.032980 0.087462 0.032980
v -0.043090 0.607138 0.017849
v -0.043090 0.503203 0.017849
v -0.043090 0.399267 0.017849
v -0.043090 0.295332 0.017849
v -0.043090 0.191397 0.017849
v -0.043090 0.087462 0.017849
v -0.046640 0.607138 0.000000
v -0.046640 0.503203 0.000000
v -0.046640 0.399267 0.000000
v -0.046640 0.295332 0.000000
v -0.046640 0.191397 0.000000
v -0.046640 0.087462 0.000000
v -0.043090 0.607138 -0.017849
v -0.043090 0.503203 -0.017849
v -0.043090 0.399267 -0.017849
v -0.043090 0.295332 -0.017849
v -0.043090 0.191397 -0.017849
v -0.043090 0.087462 -0.017849
v -0.032980 0.607138 -0.032980
v -0.032980 0.503203 -0.032980
v -0.032980 0.399267 -0.032980
v -0.032980 0.295332 -0.032980
v -0.032980 0.191397 -0.032980
v -0.032980 0.087462 -0.032980
v -0.017849 0.607138 -0.043090
v -0.017849 0.503203 -0.043090
v -0.017849 0.399267 -0.043090
v -0.017849 0.295332 -0.043090
v -0.017849 0.191397 -0.043090
v -0.017849 0.087462 -0.043090
v -0.008924 0.035494 -0.044865
v -0.008924 0.139429 -0.044865
v -0.008924 0.243365 -0.044865
v -0.008924 0.347300 -0.044865
v -0.008924 0.451235 -0.044865
v -0.008924 0.555170 -0.044865
v -0.025414 0.035494 -0.038035
v -0.025414 0.139429 -0.038035
v -0.025414 0.243364 -0.038035
v -0.025414 0.347300 -0.038035
v -0.025414 0.451235 -0.038035
v -0.025414 0.555170 -0.038035
v -0.038035 0.035494 -0.025414
v -0.038035 0.139429 -0.025414
v -0.038035 0.243364 -0.025414
v -0.038035 0.347300 -0.025414
v -0.038035 0.451235 -0.025414
v -0.038035 0.555170 -0.025414
v -0.044865 0.035494 -0.008924
v -0.044865 0.139429 -0.008924
v -0.044865 0.243364 -0.008924
v -0.044865 0.347300 -0.008924
v -0.044865 0.451235 -0.008924
v -0.044865 0.555170 -0.008924
v -0.044865 0.035494 0.008924
v -0.044865 0.139429 0.008924
v -0.044865 0.243364 0.008924
v -0.044865 0.347300 0.008924
v -0.044865 0.451235 0.008924
v -0.044865 0.555170 0.008924
v -0.038035 0.035494 0.025414
v -0.038035 0.139429 0.025414
v -0.038035 0.243364 0.025414
v -0.038035 0.347300 0.025414
v -0.038035 0.451235 0.025414
v -0.038035 0.555170 0.025414
v -0.025414 0.035494 0.038035
v -0.025414 0.139429 0.038035
v -0.025414 0.243364 0.038035
v -0.025414 0.347300 0.038035
v -0.025414 0.451235 0.038035
v -0.025414 0.555170 0.038035
v -0.008924 0.035494 0.044865
v -0.008924 0.139429 0.044865
v -0.008924 0.243364 0.044865
v -0.008924 0.347300 0.044865
v -0.008924 0.451235 0.044865
v -0.008924 0.555170 0.044865
v 0.008924 0.035494 0.044865
v 0.008924 0.139429 0.044865
v 0.008924 0.243364 0.044865
v 0.008924 0.347300 0.044865
v 0.008924 0.451235 0.044865
v 0.008924 0.555170 0.044865
v 0.025414 0.035494 0.038035
v 0.025414 0.139429 0.038035
v 0.025414 0.243364 0.038035
v 0.025414 0.347300 0.038035
v 0.025414 0.451235 0.038035
v 0.025414 0.555170 0.038035
v 0.038035 0.035494 0.025414
v 0.038035 0.139429 0.025414
v 0.038035 0.243364 0.025414
v 0.038035 0.347300 0.025414
v 0.038035 0.451235 0.025414
v 0.038035 0.555170 0.025414
v 0.044865 0.035494 0.008924
v 0.044865 0.139429 0.008924
v 0.044865 0.243364 0.008924
v 0.044865 0.347300 0.008924
v 0.044865 0.451235 0.008924
v 0.044865 0.555170 0.008924
v 0.044865 0.035494 -0.008924
v 0.044865 0.139429 -0.008924
v 0.044865 0.243364 -0.008924
v 0.044865 0.347300 -0.008924
v 0.044865 0.451235 -0.008924
v 0.044865 0.555170 -0.008924
v 0.038035 0.035494 -0.025414
v 0.038035 0.139429 -0.025414
v 0.038035 0.243364 -0.025414
v 0.038035 0.347300 -0.025414
v 0.038035 0.451235 -0.025414
v 0.038035 0.555170 -0.025414
v 0.025414 0.035494 -0.038035
v 0.025414 0.139429 -0.038035
v 0.025414 0.243364 -0.038035
v 0.025414 0.347300 -0.038035
v 0.025414 0.451235 -0.038035
v 0.025414 0.555170 -0.038035
v 0.008924 0.035494 -0.044865
v 0.008924 0.139429 -0.044865
v 0.008924 0.243365 -0.044865
v 0.008924 0.347300 -0.044865
v 0.008924 0.451235 -0.044865
v 0.008924 0.555170 -0.044865
v 0.008924 0.503203 -0.044865
v 0.008924 0.399267 -0.044865
v 0.008924 0.295332 -0.044865
v 0.008924 0.191397 -0.044865
v 0.008924 0.087462 -0.044865
v 0.008924 -0.016473 -0.044865
v 0.025414 0.503203 -0.038035
v 0.025414 0.399267 -0.038035
v 0.025414 0.295332 -0.038035
v 0.025414 0.191397 -0.038035
v 0.025414 0.087462 -0.038035
v 0.025414 -0.016473 -0.038035
v 0.038035 0.503203 -0.025414
v 0.038035 0.399267 -0.025414
v 0.038035 0.295332 -0.025414
v 0.038035 0.191397 -0.025414
v 0.038035 0.087462 -0.025414
v 0.038035 -0.016473 -0.025414
v 0.044865 0.503203 -0.008924
v 0.044865 0.399267 -0.008924
v 0.044865 0.295332 -0.008924
v 0.044865 0.191397 -0.008924
v 0.044865 0.087462 -0.008924
v 0.044865 -0.016473 -0.008924
v 0.044865 0.503203 0.008924
v 0.044865 0.399267 0.008924
v 0.044865 0.295332 0.008924
v 0.044865 0.191397 0.008924
v 0.044865 0.087462 0.008924
v 0.044865 -0.016473 0.008924
v 0.038035 0.503203 0.025414
v 0.038035 0.399267 0.025414
v 0.038035 0.295332 0.025414
v 0.038035 0.191397 0.025414
v 0.038035 0.087462 0.025414
v 0.038035 -0.016473 0.025414
v 0.025414 0.503203 0.038035
v 0.025414 0.399267 0.038035
v 0.025414 0.295332 0.038035
v 0.025414 0.191397 0.038035
v 0.025414 0.087462 0.038035
v 0.025414 -0.016473 0.038035
v 0.008924 0.503203 0.044865
v 0.008924 0.399267 0.044865
v 0.008924 0.295332 0.044865
v 0.008924 0.191397 0.044865
v 0.008924 0.087462 0.044865
v 0.008924 -0.016473 0.044865
v -0.008924 0.503203 0.044865
v -0.008924 0.399267 0.044865
v -0.008924 0.295332 0.044865
v -0.008924 0.191397 0.044865
v -0.008924 0.087462 0.044865
v -0.008924 -0.016473 0.044865
v -0.025414 0.503203 0.038035
v -0.025414 0.399267 0.038035
v -0.025414 0.295332 0.038035
v -0.025414 0.191397 0.038035
v -0.025414 0.087462 0.038035
v -0.025414 -0.016473 0.038035
v -0.038035 0.503203 0.025414
v -0.038035 0.399267 0.025414
v -0.038035 0.295332 0.025414
v -0.038035 0.191397 0.025414
v -0.038035 0.087462 0.025414
v -0.038035 -0.016473 0.025414
v -0.044865 0.503203 0.008924
v -0.044865 0.399267 0.008924
v -0.044865 0.295332 0.008924
v -0.044865 0.191397 0.008924
v -0.044865 0.087462 0.008924
v -0.044865 -0.016473 0.008924
v -0.044865 0.503203 -0.008924
v -0.044865 0.399267 -0.008924
v -0.044865 0.295332 -0.008924
v -0.044865 0.191397 -0.008924
v -0.044865 0.087462 -0.008924
v -0.044865 -0.016473 -0.008924
v -0.038035 0.503203 -0.025414
v -0.038035 0.399267 -0.025414
v -0.038035 0.295332 -0.025414
v -0.038035 0.191397 -0.025414
v -0.038035 0.087462 -0.025414
v -0.038035 -0.016473 -0.025414
v -0.025414 0.503203 -0.038035
v -0.025414 0.399267 -0.038035
v -0.025414 0.295332 -0.038035
v -0.025414 0.191397 -0.038035
v -0.025414 0.087462 -0.038035
v -0.025414 -0.016473 -0.038035
v -0.008924 0.503203 -0.044865
v -0.008924 0.399267 -0.044865
v -0.008924 0.295332 -0.044865
v -0.008924 0.191397 -0.044865
v -0.008924 0.087462 -0.044865
v -0.008924 -0.016473 -0.044865
v -0.008924 0.607138 -0.044865
v -0.025414 0.607138 -0.038035
v -0.038035 0.607138 -0.025414
v -0.044865 0.607138 -0.008924
v -0.044865 0.607138 0.008924
v -0.038035 0.607138 0.025414
v -0.025414 0.607138 0.038035
v -0.008924 0.607138 0.044865
v 0.008924 0.607138 0.044865
v 0.025414 0.607138 0.038035
v 0.038035 0.607138 0.025414
v 0.044865 0.607138 0.008924
v 0.044865 0.607138 -0.008924
v 0.038035 0.607138 -0.025414
v 0.025414 0.607138 -0.038035
v 0.008924 0.607138 -0.044865
vt 0.482963 0.964289
vt 0.482963 0.990738
vt 0.478332 0.990738
vt 0.478332 0.964289
vt 0.473701 0.964289
vt 0.473701 0.990738
vt 0.469070 0.990738
vt 0.469070 0.964289
vt 0.464439 0.964289
vt 0.464439 0.990738
vt 0.459808 0.990738
vt 0.459808 0.964289
vt 0.455177 0.964289
vt 0.455177 0.990738
vt 0.450546 0.990738
vt 0.450546 0.964289
vt 0.445915 0.964289
vt 0.445915 0.990738
vt 0.441284 0.990738
vt 0.441284 0.964289
vt 0.584844 0.964290
vt 0.584844 0.990738
vt 0.580213 0.990738
vt 0.580213 0.964290
vt 0.575582 0.964290
vt 0.575582 0.990738
vt 0.570951 0.990738
vt 0.570951 0.964290
vt 0.566320 0.964290
vt 0.566320 0.990738
vt 0.561689 0.990738
vt 0.561689 0.964290
vt 0.557058 0.964290
vt 0.557058 0.990738
vt 0.552428 0.990738
vt 0.552428 0.964289
vt 0.547797 0.964289
vt 0.547797 0.990738
vt 0.543166 0.990738
vt 0.543166 0.964289
vt 0.538535 0.964290
vt 0.538535 0.990738
vt 0.533904 0.990738
vt 0.533904 0.964290
vt 0.529273 0.964290
vt 0.529273 0.990738
vt 0.524642 0.990738
vt 0.524642 0.964290
vt 0.520011 0.964290
vt 0.520011 0.990738
vt 0.515380 0.990738
vt 0.515380 0.964289
vt 0.510749 0.964289
vt 0.510749 0.990738
vt 0.506118 0.990738
vt 0.506118 0.964289
vt 0.501487 0.964289
vt 0.501487 0.990738
vt 0.496856 0.990738
vt 0.496856 0.964289
vt 0.492225 0.964289
vt 0.492225 0.990738
vt 0.487594 0.990738
vt 0.487594 0.964289
vt 0.492225 0.646905
vt 0.492225 0.673353
vt 0.487594 0.673353
vt 0.487594 0.646905
vt 0.492225 0.699802
vt 0.492225 0.726251
vt 0.487594 0.726251
vt 0.487594 0.699802
vt 0.492225 0.752700
vt 0.492225 0.779148
vt 0.487594 0.779148
vt 0.487594 0.752700
vt 0.492225 0.805597
vt 0.492225 0.832046
vt 0.487594 0.832046
vt 0.487594 0.805597
vt 0.492225 0.858494
vt 0.492225 0.884943
vt 0.487594 0.884943
vt 0.487594 0.858494
vt 0.492225 0.911392
vt 0.492225 0.937841
vt 0.487594 0.937841
vt 0.487594 0.911392
vt 0.501487 0.646905
vt 0.501487 0.673353
vt 0.496856 0.673353
vt 0.496856 0.646905
vt 0.501487 0.699802
vt 0.501487 0.726251
vt 0.496856 0.726251
vt 0.496856 0.699802
vt 0.501487 0.752700
vt 0.501487 0.779148
vt 0.496856 0.779148
vt 0.496856 0.752700
vt 0.501487 0.805597
vt 0.501487 0.832046
vt 0.496856 0.832046
vt 0.496856 0.805597
vt 0.501487 0.858494
vt 0.501487 0.884943
vt 0.496856 0.884943
vt 0.496856 0.858494
vt 0.501487 0.911392
vt 0.501487 0.937841
vt 0.496856 0.937841
vt 0.496856 0.911392
vt 0.510749 0.646905
vt 0.510749 0.673353
vt 0.506118 0.673353
vt 0.506118 0.646905
vt 0.510749 0.699802
vt 0.510749 0.726251
vt 0.506118 0.726251
vt 0.506118 0.699802
vt 0.510749 0.752700
vt 0.510749 0.779148
vt 0.506118 0.779148
vt 0.506118 0.752699
vt 0.510749 0.805597
vt 0.510749 0.832046
vt 0.506118 0.832046
vt 0.506118 0.805597
vt 0.510749 0.858494
vt 0.510749 0.884943
vt 0.506118 0.884943
vt 0.506118 0.858494
vt 0.510749 0.911392
vt 0.510749 0.937841
vt 0.506118 0.937841
vt 0.506118 0.911392
vt 0.520011 0.646905
vt 0.520011 0.673353
vt 0.515380 0.673353
vt 0.515380 0.646905
vt 0.520011 0.699802
vt 0.520011 0.726251
vt 0.515380 0.726251
vt 0.515380 0.699802
vt 0.520011 0.752700
vt 0.520011 0.779148
vt 0.515380 0.779148
vt 0.515380 0.752700
vt 0.520011 0.805597
vt 0.520011 0.832046
vt 0.515380 0.832046
vt 0.515380 0.805597
vt 0.520011 0.858494
vt 0.520011 0.884943
vt 0.515380 0.884943
vt 0.515380 0.858494
vt 0.520011 0.911392
vt 0.520011 0.937841
vt 0.515380 0.937841
vt 0.515380 0.911392
vt 0.529273 0.646905
vt 0.529273 0.673353
vt 0.524642 0.673353
vt 0.524642 0.646905
vt 0.529273 0.699802
vt 0.529273 0.726251
vt 0.524642 0.726251
vt 0.524642 0.699802
vt 0.529273 0.752700
vt 0.529273 0.779148
vt 0.524642 0.779148
vt 0.524642 0.752700
vt 0.529273 0.805597
vt 0.529273 0.832046
vt 0.524642 0.832046
vt 0.524642 0.805597
vt 0.529273 0.858495
vt 0.529273 0.884943
vt 0.524642 0.884943
vt 0.524642 0.858494
vt 0.529273 0.911392
vt 0.529273 0.937841
vt 0.524642 0.937841
vt 0.524642 0.911392
vt 0.538535 0.646905
vt 0.538535 0.673353
vt 0.533904 0.673353
vt 0.533904 0.646905
vt 0.538535 0.699802
vt 0.538535 0.726251
vt 0.533904 0.726251
vt 0.533904 0.699802
vt 0.538535 0.752700
vt 0.538535 0.779148
vt 0.533904 0.779148
vt 0.533904 0.752700
vt 0.538535 0.805597
vt 0.538535 0.832046
vt 0.533904 0.832046
vt 0.533904 0.805597
vt 0.538535 0.858495
vt 0.538535 0.884943
vt 0.533904 0.884943
vt 0.533904 0.858495
vt 0.538535 0.911392
vt 0.538535 0.937841
vt 0.533904 0.937841
vt 0.533904 0.911392
vt 0.547797 0.646905
vt 0.547797 0.673353
vt 0.543166 0.673353
vt 0.543166 0.646905
vt 0.547797 0.699802
vt 0.547797 0.726251
vt 0.543166 0.726251
vt 0.543166 0.699802
vt 0.547797 0.752700
vt 0.547797 0.779148
vt 0.543166 0.779148
vt 0.543166 0.752700
vt 0.547797 0.805597
vt 0.547797 0.832046
vt 0.543166 0.832046
vt 0.543166 0.805597
vt 0.547797 0.858495
vt 0.547797 0.884943
vt 0.543166 0.884943
vt 0.543166 0.858495
vt 0.547797 0.911392
vt 0.547797 0.937841
vt 0.543166 0.937841
vt 0.543166 0.911392
vt 0.557059 0.646905
vt 0.557059 0.673353
vt 0.552428 0.673353
vt 0.552428 0.646905
vt 0.557059 0.699802
vt 0.557059 0.726251
vt 0.552428 0.726251
vt 0.552428 0.699802
vt 0.557059 0.752700
vt 0.557059 0.779148
vt 0.552428 0.779148
vt 0.552428 0.752700
vt 0.557058 0.805597
vt 0.557058 0.832046
vt 0.552428 0.832046
vt 0.552428 0.805597
vt 0.557058 0.858494
vt 0.557058 0.884943
vt 0.552428 0.884943
vt 0.552428 0.858494
vt 0.557058 0.911392
vt 0.557058 0.937841
vt 0.552428 0.937841
vt 0.552428 0.911392
vt 0.566320 0.646905
vt 0.566320 0.673353
vt 0.561690 0.673353
vt 0.561690 0.646905
vt 0.566320 0.699802
vt 0.566320 0.726251
vt 0.561689 0.726251
vt 0.561689 0.699802
vt 0.566320 0.752700
vt 0.566320 0.779148
vt 0.561689 0.779148
vt 0.561689 0.752700
vt 0.566320 0.805597
vt 0.566320 0.832046
vt 0.561689 0.832046
vt 0.561689 0.805597
vt 0.566320 0.858494
vt 0.566320 0.884943
vt 0.561689 0.884943
vt 0.561689 0.858494
vt 0.566320 0.911392
vt 0.566320 0.937841
vt 0.561689 0.937841
vt 0.561689 0.911392
vt 0.575582 0.646905
vt 0.575582 0.673353
vt 0.570951 0.673353
vt 0.570951 0.646905
vt 0.575582 0.699802
vt 0.575582 0.726251
vt 0.570951 0.726251
vt 0.570951 0.699802
vt 0.575582 0.752700
vt 0.575582 0.779148
vt 0.570951 0.779148
vt 0.570951 0.752700
vt 0.575582 0.805597
vt 0.575582 0.832046
vt 0.570951 0.832046
vt 0.570951 0.805597
vt 0.575582 0.858494
vt 0.575582 0.884943
vt 0.570951 0.884943
vt 0.570951 0.858494
vt 0.575582 0.911392
vt 0.575582 0.937841
vt 0.570951 0.937841
vt 0.570951 0.911392
vt 0.584844 0.646905
vt 0.584844 0.673353
vt 0.580213 0.673353
vt 0.580213 0.646905
vt 0.584844 0.699802
vt 0.584844 0.726251
vt 0.580213 0.726251
vt 0.580213 0.699802
vt 0.584844 0.752700
vt 0.584844 0.779148
vt 0.580213 0.779148
vt 0.580213 0.752700
vt 0.584844 0.805597
vt 0.584844 0.832046
vt 0.580213 0.832046
vt 0.580213 0.805597
vt 0.584844 0.858495
vt 0.584844 0.884943
vt 0.580213 0.884943
vt 0.580213 0.858494
vt 0.584844 0.911392
vt 0.584844 0.937841
vt 0.580213 0.937841
vt 0.580213 0.911392
vt 0.445916 0.646905
vt 0.445916 0.673353
vt 0.441285 0.673353
vt 0.441285 0.646905
vt 0.445916 0.699802
vt 0.445916 0.726251
vt 0.441285 0.726251
vt 0.441285 0.699802
vt 0.445916 0.752699
vt 0.445916 0.779148
vt 0.441285 0.779148
vt 0.441285 0.752699
vt 0.445916 0.805597
vt 0.445916 0.832046
vt 0.441285 0.832046
vt 0.441285 0.805597
vt 0.445916 0.858494
vt 0.445915 0.884943
vt 0.441285 0.884943
vt 0.441285 0.858494
vt 0.445915 0.911392
vt 0.445915 0.937841
vt 0.441284 0.937841
vt 0.441284 0.911392
vt 0.455178 0.646905
vt 0.455178 0.673353
vt 0.450547 0.673353
vt 0.450547 0.646905
vt 0.455178 0.699802
vt 0.455178 0.726251
vt 0.450547 0.726251
vt 0.450547 0.699802
vt 0.455178 0.752700
vt 0.455177 0.779148
vt 0.450547 0.779148
vt 0.450547 0.752699
vt 0.455177 0.805597
vt 0.455177 0.832046
vt 0.450546 0.832046
vt 0.450547 0.805597
vt 0.455177 0.858494
vt 0.455177 0.884943
vt 0.450546 0.884943
vt 0.450546 0.858494
vt 0.455177 0.911392
vt 0.455177 0.937841
vt 0.450546 0.937841
vt 0.450546 0.911392
vt 0.464439 0.646905
vt 0.464439 0.673353
vt 0.459809 0.673353
vt 0.459809 0.646905
vt 0.464439 0.699802
vt 0.464439 0.726251
vt 0.459808 0.726251
vt 0.459808 0.699802
vt 0.464439 0.752700
vt 0.464439 0.779148
vt 0.459808 0.779148
vt 0.459808 0.752700
vt 0.464439 0.805597
vt 0.464439 0.832046
vt 0.459808 0.832046
vt 0.459808 0.805597
vt 0.464439 0.858494
vt 0.464439 0.884943
vt 0.459808 0.884943
vt 0.459808 0.858494
vt 0.464439 0.911392
vt 0.464439 0.937841
vt 0.459808 0.937841
vt 0.459808 0.911392
vt 0.473701 0.646905
vt 0.473701 0.673353
vt 0.469070 0.673353
vt 0.469070 0.646905
vt 0.473701 0.699802
vt 0.473701 0.726251
vt 0.469070 0.726251
vt 0.469070 0.699802
vt 0.473701 0.752700
vt 0.473701 0.779148
vt 0.469070 0.779148
vt 0.469070 0.752700
vt 0.473701 0.805597
vt 0.473701 0.832046
vt 0.469070 0.832046
vt 0.469070 0.805597
vt 0.473701 0.858494
vt 0.473701 0.884943
vt 0.469070 0.884943
vt 0.469070 0.858494
vt 0.473701 0.911392
vt 0.473701 0.937841
vt 0.469070 0.937841
vt 0.469070 0.911392
vt 0.482963 0.646905
vt 0.482963 0.673353
vt 0.478332 0.673353
vt 0.478332 0.646905
vt 0.482963 0.699802
vt 0.482963 0.726251
vt 0.478332 0.726251
vt 0.478332 0.699802
vt 0.482963 0.752699
vt 0.482963 0.779148
vt 0.478332 0.779148
vt 0.478332 0.752699
vt 0.482963 0.805597
vt 0.482963 0.832046
vt 0.478332 0.832046
vt 0.478332 0.805597
vt 0.482963 0.858494
vt 0.482963 0.884943
vt 0.478332 0.884943
vt 0.478332 0.858494
vt 0.482963 0.911392
vt 0.482963 0.937841
vt 0.478332 0.937841
vt 0.478332 0.911392
vt 0.482963 0.620456
vt 0.478332 0.620456
vt 0.487594 0.620456
vt 0.473701 0.620456
vt 0.469070 0.620456
vt 0.464440 0.620456
vt 0.459809 0.620456
vt 0.455178 0.620456
vt 0.450547 0.620456
vt 0.445916 0.620456
vt 0.441285 0.620456
vt 0.589475 0.884943
vt 0.589475 0.911392
vt 0.589475 0.937841
vt 0.589475 0.832046
vt 0.589475 0.858495
vt 0.589475 0.779148
vt 0.589475 0.805597
vt 0.589475 0.726251
vt 0.589475 0.752700
vt 0.589475 0.673353
vt 0.589475 0.699802
vt 0.584844 0.620456
vt 0.580213 0.620456
vt 0.589475 0.620456
vt 0.589475 0.646905
vt 0.575582 0.620456
vt 0.570951 0.620456
vt 0.566320 0.620456
vt 0.561690 0.620456
vt 0.557059 0.620456
vt 0.552428 0.620456
vt 0.547797 0.620456
vt 0.543166 0.620456
vt 0.538535 0.620456
vt 0.533904 0.620456
vt 0.529273 0.620456
vt 0.524642 0.620456
vt 0.520011 0.620456
vt 0.515380 0.620456
vt 0.510749 0.620456
vt 0.506118 0.620456
vt 0.501487 0.620456
vt 0.496856 0.620456
vt 0.492225 0.620456
vt 0.589475 0.964290
vt 0.589475 0.990738
vn 0.1951 0.0000 -0.9808
vn 0.3827 0.0000 -0.9239
vn 0.5556 0.0000 -0.8314
vn 0.7071 0.0000 -0.7071
vn 0.8314 0.0000 -0.5556
vn 0.9239 0.0000 -0.3827
vn 0.9808 0.0000 -0.1951
vn 1.0000 0.0000 0.0000
vn 0.9808 0.0000 0.1951
vn 0.9239 0.0000 0.3827
vn 0.8314 0.0000 0.5556
vn 0.7071 0.0000 0.7071
vn 0.5556 0.0000 0.8314
vn 0.3827 0.0000 0.9239
vn 0.1951 0.0000 0.9808
vn 0.0000 0.0000 1.0000
vn -0.1951 0.0000 0.9808
vn -0.3827 0.0000 0.9239
vn -0.5556 0.0000 0.8314
vn -0.7071 0.0000 0.7071
vn -0.8314 0.0000 0.5556
vn -0.9239 0.0000 0.3827
vn -0.9808 0.0000 0.1951
vn -1.0000 0.0000 0.0000
vn -0.9808 0.0000 -0.1951
vn -0.9239 0.0000 -0.3827
vn -0.8314 0.0000 -0.5556
vn -0.7071 0.0000 -0.7071
vn -0.5556 0.0000 -0.8314
vn -0.3827 0.0000 -0.9239
vn -0.1951 0.0000 -0.9808
vn 0.0000 0.0000 -1.0000
s 1
f 480/1/1 131/2/1 4/3/2 183/4/2
f 479/5/3 134/6/3 6/7/4 189/8/4
f 478/9/5 137/10/5 8/11/6 195/12/6
f 477/13/7 140/14/7 10/15/8 201/16/8
f 476/17/9 143/18/9 12/19/10 207/20/10
f 475/21/11 146/22/11 14/23/12 213/24/12
f 474/25/13 149/26/13 16/27/14 219/28/14
f 473/29/15 152/30/15 18/31/16 225/32/16
f 472/33/17 155/34/17 20/35/18 231/36/18
f 471/37/19 158/38/19 22/39/20 237/40/20
f 470/41/21 161/42/21 24/43/22 243/44/22
f 469/45/23 164/46/23 26/47/24 249/48/24
f 468/49/25 167/50/25 28/51/26 255/52/26
f 467/53/27 170/54/27 30/55/28 261/56/28
f 466/57/29 173/58/29 32/59/30 267/60/30
f 465/61/31 176/62/31 2/63/32 130/64/32
f 464/65/31 273/66/31 33/67/32 177/68/32
f 463/69/31 274/70/31 34/71/32 178/72/32
f 462/73/31 275/74/31 35/75/32 179/76/32
f 461/77/31 276/78/31 36/79/32 180/80/32
f 460/81/31 277/82/31 37/83/32 181/84/32
f 459/85/31 278/86/31 38/87/32 182/88/32
f 458/89/29 279/90/29 128/91/30 174/92/30
f 457/93/29 280/94/29 127/95/30 272/96/30
f 456/97/29 281/98/29 126/99/30 271/100/30
f 455/101/29 282/102/29 125/103/30 270/104/30
f 454/105/29 283/106/29 124/107/30 269/108/30
f 453/109/29 284/110/29 123/111/30 268/112/30
f 452/113/27 285/114/27 122/115/28 171/116/28
f 451/117/27 286/118/27 121/119/28 266/120/28
f 450/121/27 287/122/27 120/123/28 265/124/28
f 449/125/27 288/126/27 119/127/28 264/128/28
f 448/129/27 289/130/27 118/131/28 263/132/28
f 447/133/27 290/134/27 117/135/28 262/136/28
f 446/137/25 291/138/25 116/139/26 168/140/26
f 445/141/25 292/142/25 115/143/26 260/144/26
f 444/145/25 293/146/25 114/147/26 259/148/26
f 443/149/25 294/150/25 113/151/26 258/152/26
f 442/153/25 295/154/25 112/155/26 257/156/26
f 441/157/25 296/158/25 111/159/26 256/160/26
f 440/161/23 297/162/23 110/163/24 165/164/24
f 439/165/23 298/166/23 109/167/24 254/168/24
f 438/169/23 299/170/23 108/171/24 253/172/24
f 437/173/23 300/174/23 107/175/24 252/176/24
f 436/177/23 301/178/23 106/179/24 251/180/24
f 435/181/23 302/182/23 105/183/24 250/184/24
f 434/185/21 303/186/21 104/187/22 162/188/22
f 433/189/21 304/190/21 103/191/22 248/192/22
f 432/193/21 305/194/21 102/195/22 247/196/22
f 431/197/21 306/198/21 101/199/22 246/200/22
f 430/201/21 307/202/21 100/203/22 245/204/22
f 429/205/21 308/206/21 99/207/22 244/208/22
f 428/209/19 309/210/19 98/211/20 159/212/20
f 427/213/19 310/214/19 97/215/20 242/216/20
f 426/217/19 311/218/19 96/219/20 241/220/20
f 425/221/19 312/222/19 95/223/20 240/224/20
f 424/225/19 313/226/19 94/227/20 239/228/20
f 423/229/19 314/230/19 93/231/20 238/232/20
f 422/233/17 315/234/17 92/235/18 156/236/18
f 421/237/17 316/238/17 91/239/18 236/240/18
f 420/241/17 317/242/17 90/243/18 235/244/18
f 419/245/17 318/246/17 89/247/18 234/248/18
f 418/249/17 319/250/17 88/251/18 233/252/18
f 417/253/17 320/254/17 87/255/18 232/256/18
f 416/257/15 321/258/15 86/259/16 153/260/16
f 415/261/15 322/262/15 85/263/16 230/264/16
f 414/265/15 323/266/15 84/267/16 229/268/16
f 413/269/15 324/270/15 83/271/16 228/272/16
f 412/273/15 325/274/15 82/275/16 227/276/16
f 411/277/15 326/278/15 81/279/16 226/280/16
f 410/281/13 327/282/13 80/283/14 150/284/14
f 409/285/13 328/286/13 79/287/14 224/288/14
f 408/289/13 329/290/13 78/291/14 223/292/14
f 407/293/13 330/294/13 77/295/14 222/296/14
f 406/297/13 331/298/13 76/299/14 221/300/14
f 405/301/13 332/302/13 75/303/14 220/304/14
f 404/305/11 333/306/11 74/307/12 147/308/12
f 403/309/11 334/310/11 73/311/12 218/312/12
f 402/313/11 335/314/11 72/315/12 217/316/12
f 401/317/11 336/318/11 71/319/12 216/320/12
f 400/321/11 337/322/11 70/323/12 215/324/12
f 399/325/11 338/326/11 69/327/12 214/328/12
f 398/329/9 339/330/9 68/331/10 144/332/10
f 397/333/9 340/334/9 67/335/10 212/336/10
f 396/337/9 341/338/9 66/339/10 211/340/10
f 395/341/9 342/342/9 65/343/10 210/344/10
f 394/345/9 343/346/9 64/347/10 209/348/10
f 393/349/9 344/350/9 63/351/10 208/352/10
f 392/353/7 345/354/7 62/355/8 141/356/8
f 391/357/7 346/358/7 61/359/8 206/360/8
f 390/361/7 347/362/7 60/363/8 205/364/8
f 389/365/7 348/366/7 59/367/8 204/368/8
f 388/369/7 349/370/7 58/371/8 203/372/8
f 387/373/7 350/374/7 57/375/8 202/376/8
f 386/377/5 351/378/5 56/379/6 138/380/6
f 385/381/5 352/382/5 55/383/6 200/384/6
f 384/385/5 353/386/5 54/387/6 199/388/6
f 383/389/5 354/390/5 53/391/6 198/392/6
f 382/393/5 355/394/5 52/395/6 197/396/6
f 381/397/5 356/398/5 51/399/6 196/400/6
f 380/401/3 357/402/3 50/403/4 135/404/4
f 379/405/3 358/406/3 49/407/4 194/408/4
f 378/409/3 359/410/3 48/411/4 193/412/4
f 377/413/3 360/414/3 47/415/4 192/416/4
f 376/417/3 361/418/3 46/419/4 191/420/4
f 375/421/3 362/422/3 45/423/4 190/424/4
f 374/425/1 363/426/1 44/427/2 132/428/2
f 373/429/1 364/430/1 43/431/2 188/432/2
f 372/433/1 365/434/1 42/435/2 187/436/2
f 371/437/1 366/438/1 41/439/2 186/440/2
f 370/441/1 367/442/1 40/443/2 185/444/2
f 369/445/1 368/446/1 39/447/2 184/448/2
f 367/442/1 369/445/1 184/448/2 40/443/2
f 37/83/32 182/88/32 369/445/1 367/442/1
f 182/88/32 38/87/32 368/446/1 369/445/1
f 366/438/1 370/441/1 185/444/2 41/439/2
f 36/79/32 181/84/32 370/441/1 366/438/1
f 181/84/32 37/83/32 367/442/1 370/441/1
f 365/434/1 371/437/1 186/440/2 42/435/2
f 35/75/32 180/80/32 371/437/1 365/434/1
f 180/80/32 36/79/32 366/438/1 371/437/1
f 364/430/1 372/433/1 187/436/2 43/431/2
f 34/71/32 179/76/32 372/433/1 364/430/1
f 179/76/32 35/75/32 365/434/1 372/433/1
f 363/426/1 373/429/1 188/432/2 44/427/2
f 33/67/32 178/72/32 373/429/1 363/426/1
f 178/72/32 34/71/32 364/430/1 373/429/1
f 129/449/1 374/425/1 132/428/2 3/450/2
f 1/451/32 177/68/32 374/425/1 129/449/1
f 177/68/32 33/67/32 363/426/1 374/425/1
f 361/418/3 375/421/3 190/424/4 46/419/4
f 40/443/2 184/448/2 375/421/3 361/418/3
f 184/448/2 39/447/2 362/422/3 375/421/3
f 360/414/3 376/417/3 191/420/4 47/415/4
f 41/439/2 185/444/2 376/417/3 360/414/3
f 185/444/2 40/443/2 361/418/3 376/417/3
f 359/410/3 377/413/3 192/416/4 48/411/4
f 42/435/2 186/440/2 377/413/3 359/410/3
f 186/440/2 41/439/2 360/414/3 377/413/3
f 358/406/3 378/409/3 193/412/4 49/407/4
f 43/431/2 187/436/2 378/409/3 358/406/3
f 187/436/2 42/435/2 359/410/3 378/409/3
f 357/402/3 379/405/3 194/408/4 50/403/4
f 44/427/2 188/432/2 379/405/3 357/402/3
f 188/432/2 43/431/2 358/406/3 379/405/3
f 133/452/3 380/401/3 135/404/4 5/453/4
f 3/450/2 132/428/2 380/401/3 133/452/3
f 132/428/2 44/427/2 357/402/3 380/401/3
f 355/394/5 381/397/5 196/400/6 52/395/6
f 46/419/4 190/424/4 381/397/5 355/394/5
f 190/424/4 45/423/4 356/398/5 381/397/5
f 354/390/5 382/393/5 197/396/6 53/391/6
f 47/415/4 191/420/4 382/393/5 354/390/5
f 191/420/4 46/419/4 355/394/5 382/393/5
f 353/386/5 383/389/5 198/392/6 54/387/6
f 48/411/4 192/416/4 383/389/5 353/386/5
f 192/416/4 47/415/4 354/390/5 383/389/5
f 352/382/5 384/385/5 199/388/6 55/383/6
f 49/407/4 193/412/4 384/385/5 352/382/5
f 193/412/4 48/411/4 353/386/5 384/385/5
f 351/378/5 385/381/5 200/384/6 56/379/6
f 50/403/4 194/408/4 385/381/5 351/378/5
f 194/408/4 49/407/4 352/382/5 385/381/5
f 136/454/5 386/377/5 138/380/6 7/455/6
f 5/453/4 135/404/4 386/377/5 136/454/5
f 135/404/4 50/403/4 351/378/5 386/377/5
f 349/370/7 387/373/7 202/376/8 58/371/8
f 52/395/6 196/400/6 387/373/7 349/370/7
f 196/400/6 51/399/6 350/374/7 387/373/7
f 348/366/7 388/369/7 203/372/8 59/367/8
f 53/391/6 197/396/6 388/369/7 348/366/7
f 197/396/6 52/395/6 349/370/7 388/369/7
f 347/362/7 389/365/7 204/368/8 60/363/8
f 54/387/6 198/392/6 389/365/7 347/362/7
f 198/392/6 53/391/6 348/366/7 389/365/7
f 346/358/7 390/361/7 205/364/8 61/359/8
f 55/383/6 199/388/6 390/361/7 346/358/7
f 199/388/6 54/387/6 347/362/7 390/361/7
f 345/354/7 391/357/7 206/360/8 62/355/8
f 56/379/6 200/384/6 391/357/7 345/354/7
f 200/384/6 55/383/6 346/358/7 391/357/7
f 139/456/7 392/353/7 141/356/8 9/457/8
f 7/455/6 138/380/6 392/353/7 139/456/7
f 138/380/6 56/379/6 345/354/7 392/353/7
f 343/346/9 393/349/9 208/352/10 64/347/10
f 58/371/8 202/376/8 393/349/9 343/346/9
f 202/376/8 57/375/8 344/350/9 393/349/9
f 342/342/9 394/345/9 209/348/10 65/343/10
f 59/367/8 203/372/8 394/345/9 342/342/9
f 203/372/8 58/371/8 343/346/9 394/345/9
f 341/338/9 395/341/9 210/344/10 66/339/10
f 60/363/8 204/368/8 395/341/9 341/338/9
f 204/368/8 59/367/8 342/342/9 395/341/9
f 340/334/9 396/337/9 211/340/10 67/335/10
f 61/359/8 205/364/8 396/337/9 340/334/9
f 205/364/8 60/363/8 341/338/9 396/337/9
f 339/330/9 397/333/9 212/336/10 68/331/10
f 62/355/8 206/360/8 397/333/9 339/330/9
f 206/360/8 61/359/8 340/334/9 397/333/9
f 142/458/9 398/329/9 144/332/10 11/459/10
f 9/457/8 141/356/8 398/329/9 142/458/9
f 141/356/8 62/355/8 339/330/9 398/329/9
f 337/322/11 399/325/11 214/328/12 70/323/12
f 64/460/10 208/461/10 399/325/11 337/322/11
f 208/461/10 63/462/10 338/326/11 399/325/11
f 336/318/11 400/321/11 215/324/12 71/319/12
f 65/463/10 209/464/10 400/321/11 336/318/11
f 209/464/10 64/460/10 337/322/11 400/321/11
f 335/314/11 401/317/11 216/320/12 72/315/12
f 66/465/10 210/466/10 401/317/11 335/314/11
f 210/466/10 65/463/10 336/318/11 401/317/11
f 334/310/11 402/313/11 217/316/12 73/311/12
f 67/467/10 211/468/10 402/313/11 334/310/11
f 211/468/10 66/465/10 335/314/11 402/313/11
f 333/306/11 403/309/11 218/312/12 74/307/12
f 68/469/10 212/470/10 403/309/11 333/306/11
f 212/470/10 67/467/10 334/310/11 403/309/11
f 145/471/11 404/305/11 147/308/12 13/472/12
f 11/473/10 144/474/10 404/305/11 145/471/11
f 144/474/10 68/469/10 333/306/11 404/305/11
f 331/298/13 405/301/13 220/304/14 76/299/14
f 70/323/12 214/328/12 405/301/13 331/298/13
f 214/328/12 69/327/12 332/302/13 405/301/13
f 330/294/13 406/297/13 221/300/14 77/295/14
f 71/319/12 215/324/12 406/297/13 330/294/13
f 215/324/12 70/323/12 331/298/13 406/297/13
f 329/290/13 407/293/13 222/296/14 78/291/14
f 72/315/12 216/320/12 407/293/13 329/290/13
f 216/320/12 71/319/12 330/294/13 407/293/13
f 328/286/13 408/289/13 223/292/14 79/287/14
f 73/311/12 217/316/12 408/289/13 328/286/13
f 217/316/12 72/315/12 329/290/13 408/289/13
f 327/282/13 409/285/13 224/288/14 80/283/14
f 74/307/12 218/312/12 409/285/13 327/282/13
f 218/312/12 73/311/12 328/286/13 409/285/13
f 148/475/13 410/281/13 150/284/14 15/476/14
f 13/472/12 147/308/12 410/281/13 148/475/13
f 147/308/12 74/307/12 327/282/13 410/281/13
f 325/274/15 411/277/15 226/280/16 82/275/16
f 76/299/14 220/304/14 411/277/15 325/274/15
f 220/304/14 75/303/14 326/278/15 411/277/15
f 324/270/15 412/273/15 227/276/16 83/271/16
f 77/295/14 221/300/14 412/273/15 324/270/15
f 221/300/14 76/299/14 325/274/15 412/273/15
f 323/266/15 413/269/15 228/272/16 84/267/16
f 78/291/14 222/296/14 413/269/15 323/266/15
f 222/296/14 77/295/14 324/270/15 413/269/15
f 322/262/15 414/265/15 229/268/16 85/263/16
f 79/287/14 223/292/14 414/265/15 322/262/15
f 223/292/14 78/291/14 323/266/15 414/265/15
f 321/258/15 415/261/15 230/264/16 86/259/16
f 80/283/14 224/288/14 415/261/15 321/258/15
f 224/288/14 79/287/14 322/262/15 415/261/15
f 151/477/15 416/257/15 153/260/16 17/478/16
f 15/476/14 150/284/14 416/257/15 151/477/15
f 150/284/14 80/283/14 321/258/15 416/257/15
f 319/250/17 417/253/17 232/256/18 88/251/18
f 82/275/16 226/280/16 417/253/17 319/250/17
f 226/280/16 81/279/16 320/254/17 417/253/17
f 318/246/17 418/249/17 233/252/18 89/247/18
f 83/271/16 227/276/16 418/249/17 318/246/17
f 227/276/16 82/275/16 319/250/17 418/249/17
f 317/242/17 419/245/17 234/248/18 90/243/18
f 84/267/16 228/272/16 419/245/17 317/242/17
f 228/272/16 83/271/16 318/246/17 419/245/17
f 316/238/17 420/241/17 235/244/18 91/239/18
f 85/263/16 229/268/16 420/241/17 316/238/17
f 229/268/16 84/267/16 317/242/17 420/241/17
f 315/234/17 421/237/17 236/240/18 92/235/18
f 86/259/16 230/264/16 421/237/17 315/234/17
f 230/264/16 85/263/16 316/238/17 421/237/17
f 154/479/17 422/233/17 156/236/18 19/480/18
f 17/478/16 153/260/16 422/233/17 154/479/17
f 153/260/16 86/259/16 315/234/17 422/233/17
f 313/226/19 423/229/19 238/232/20 94/227/20
f 88/251/18 232/256/18 423/229/19 313/226/19
f 232/256/18 87/255/18 314/230/19 423/229/19
f 312/222/19 424/225/19 239/228/20 95/223/20
f 89/247/18 233/252/18 424/225/19 312/222/19
f 233/252/18 88/251/18 313/226/19 424/225/19
f 311/218/19 425/221/19 240/224/20 96/219/20
f 90/243/18 234/248/18 425/221/19 311/218/19
f 234/248/18 89/247/18 312/222/19 425/221/19
f 310/214/19 426/217/19 241/220/20 97/215/20
f 91/239/18 235/244/18 426/217/19 310/214/19
f 235/244/18 90/243/18 311/218/19 426/217/19
f 309/210/19 427/213/19 242/216/20 98/211/20
f 92/235/18 236/240/18 427/213/19 309/210/19
f 236/240/18 91/239/18 310/214/19 427/213/19
f 157/481/19 428/209/19 159/212/20 21/482/20
f 19/480/18 156/236/18 428/209/19 157/481/19
f 156/236/18 92/235/18 309/210/19 428/209/19
f 307/202/21 429/205/21 244/208/22 100/203/22
f 94/227/20 238/232/20 429/205/21 307/202/21
f 238/232/20 93/231/20 308/206/21 429/205/21
f 306/198/21 430/201/21 245/204/22 101/199/22
f 95/223/20 239/228/20 430/201/21 306/198/21
f 239/228/20 94/227/20 307/202/21 430/201/21
f 305/194/21 431/197/21 246/200/22 102/195/22
f 96/219/20 240/224/20 431/197/21 305/194/21
f 240/224/20 95/223/20 306/198/21 431/197/21
f 304/190/21 432/193/21 247/196/22 103/191/22
f 97/215/20 241/220/20 432/193/21 304/190/21
f 241/220/20 96/219/20 305/194/21 432/193/21
f 303/186/21 433/189/21 248/192/22 104/187/22
f 98/211/20 242/216/20 433/189/21 303/186/21
f 242/216/20 97/215/20 304/190/21 433/189/21
f 160/483/21 434/185/21 162/188/22 23/484/22
f 21/482/20 159/212/20 434/185/21 160/483/21
f 159/212/20 98/211/20 303/186/21 434/185/21
f 301/178/23 435/181/23 250/184/24 106/179/24
f 100/203/22 244/208/22 435/181/23 301/178/23
f 244/208/22 99/207/22 302/182/23 435/181/23
f 300/174/23 436/177/23 251/180/24 107/175/24
f 101/199/22 245/204/22 436/177/23 300/174/23
f 245/204/22 100/203/22 301/178/23 436/177/23
f 299/170/23 437/173/23 252/176/24 108/171/24
f 102/195/22 246/200/22 437/173/23 299/170/23
f 246/200/22 101/199/22 300/174/23 437/173/23
f 298/166/23 438/169/23 253/172/24 109/167/24
f 103/191/22 247/196/22 438/169/23 298/166/23
f 247/196/22 102/195/22 299/170/23 438/169/23
f 297/162/23 439/165/23 254/168/24 110/163/24
f 104/187/22 248/192/22 439/165/23 297/162/23
f 248/192/22 103/191/22 298/166/23 439/165/23
f 163/485/23 440/161/23 165/164/24 25/486/24
f 23/484/22 162/188/22 440/161/23 163/485/23
f 162/188/22 104/187/22 297/162/23 440/161/23
f 295/154/25 441/157/25 256/160/26 112/155/26
f 106/179/24 250/184/24 441/157/25 295/154/25
f 250/184/24 105/183/24 296/158/25 441/157/25
f 294/150/25 442/153/25 257/156/26 113/151/26
f 107/175/24 251/180/24 442/153/25 294/150/25
f 251/180/24 106/179/24 295/154/25 442/153/25
f 293/146/25 443/149/25 258/152/26 114/147/26
f 108/171/24 252/176/24 443/149/25 293/146/25
f 252/176/24 107/175/24 294/150/25 443/149/25
f 292/142/25 444/145/25 259/148/26 115/143/26
f 109/167/24 253/172/24 444/145/25 292/142/25
f 253/172/24 108/171/24 293/146/25 444/145/25
f 291/138/25 445/141/25 260/144/26 116/139/26
f 110/163/24 254/168/24 445/141/25 291/138/25
f 254/168/24 109/167/24 292/142/25 445/141/25
f 166/487/25 446/137/25 168/140/26 27/488/26
f 25/486/24 165/164/24 446/137/25 166/487/25
f 165/164/24 110/163/24 291/138/25 446/137/25
f 289/130/27 447/133/27 262/136/28 118/131/28
f 112/155/26 256/160/26 447/133/27 289/130/27
f 256/160/26 111/159/26 290/134/27 447/133/27
f 288/126/27 448/129/27 263/132/28 119/127/28
f 113/151/26 257/156/26 448/129/27 288/126/27
f 257/156/26 112/155/26 289/130/27 448/129/27
f 287/122/27 449/125/27 264/128/28 120/123/28
f 114/147/26 258/152/26 449/125/27 287/122/27
f 258/152/26 113/151/26 288/126/27 449/125/27
f 286/118/27 450/121/27 265/124/28 121/119/28
f 115/143/26 259/148/26 450/121/27 286/118/27
f 259/148/26 114/147/26 287/122/27 450/121/27
f 285/114/27 451/117/27 266/120/28 122/115/28
f 116/139/26 260/144/26 451/117/27 285/114/27
f 260/144/26 115/143/26 286/118/27 451/117/27
f 169/489/27 452/113/27 171/116/28 29/490/28
f 27/488/26 168/140/26 452/113/27 169/489/27
f 168/140/26 116/139/26 285/114/27 452/113/27
f 283/106/29 453/109/29 268/112/30 124/107/30
f 118/131/28 262/136/28 453/109/29 283/106/29
f 262/136/28 117/135/28 284/110/29 453/109/29
f 282/102/29 454/105/29 269/108/30 125/103/30
f 119/127/28 263/132/28 454/105/29 282/102/29
f 263/132/28 118/131/28 283/106/29 454/105/29
f 281/98/29 455/101/29 270/104/30 126/99/30
f 120/123/28 264/128/28 455/101/29 281/98/29
f 264/128/28 119/127/28 282/102/29 455/101/29
f 280/94/29 456/97/29 271/100/30 127/95/30
f 121/119/28 265/124/28 456/97/29 280/94/29
f 265/124/28 120/123/28 281/98/29 456/97/29
f 279/90/29 457/93/29 272/96/30 128/91/30
f 122/115/28 266/120/28 457/93/29 279/90/29
f 266/120/28 121/119/28 280/94/29 457/93/29
f 172/491/29 458/89/29 174/92/30 31/492/30
f 29/490/28 171/116/28 458/89/29 172/491/29
f 171/116/28 122/115/28 279/90/29 458/89/29
f 277/82/31 459/85/31 182/88/32 37/83/32
f 124/107/30 268/112/30 459/85/31 277/82/31
f 268/112/30 123/111/30 278/86/31 459/85/31
f 276/78/31 460/81/31 181/84/32 36/79/32
f 125/103/30 269/108/30 460/81/31 276/78/31
f 269/108/30 124/107/30 277/82/31 460/81/31
f 275/74/31 461/77/31 180/80/32 35/75/32
f 126/99/30 270/104/30 461/77/31 275/74/31
f 270/104/30 125/103/30 276/78/31 461/77/31
f 274/70/31 462/73/31 179/76/32 34/71/32
f 127/95/30 271/100/30 462/73/31 274/70/31
f 271/100/30 126/99/30 275/74/31 462/73/31
f 273/66/31 463/69/31 178/72/32 33/67/32
f 128/91/30 272/96/30 463/69/31 273/66/31
f 272/96/30 127/95/30 274/70/31 463/69/31
f 175/493/31 464/65/31 177/68/32 1/451/32
f 31/492/30 174/92/30 464/65/31 175/493/31
f 174/92/30 128/91/30 273/66/31 464/65/31
f 278/86/31 465/61/31 130/64/32 38/87/32
f 123/111/30 267/60/30 465/61/31 278/86/31
f 267/60/30 32/59/30 176/62/31 465/61/31
f 284/110/29 466/57/29 267/60/30 123/111/30
f 117/135/28 261/56/28 466/57/29 284/110/29
f 261/56/28 30/55/28 173/58/29 466/57/29
f 290/134/27 467/53/27 261/56/28 117/135/28
f 111/159/26 255/52/26 467/53/27 290/134/27
f 255/52/26 28/51/26 170/54/27 467/53/27
f 296/158/25 468/49/25 255/52/26 111/159/26
f 105/183/24 249/48/24 468/49/25 296/158/25
f 249/48/24 26/47/24 167/50/25 468/49/25
f 302/182/23 469/45/23 249/48/24 105/183/24
f 99/207/22 243/44/22 469/45/23 302/182/23
f 243/44/22 24/43/22 164/46/23 469/45/23
f 308/206/21 470/41/21 243/44/22 99/207/22
f 93/231/20 237/40/20 470/41/21 308/206/21
f 237/40/20 22/39/20 161/42/21 470/41/21
f 314/230/19 471/37/19 237/40/20 93/231/20
f 87/255/18 231/36/18 471/37/19 314/230/19
f 231/36/18 20/35/18 158/38/19 471/37/19
f 320/254/17 472/33/17 231/36/18 87/255/18
f 81/279/16 225/32/16 472/33/17 320/254/17
f 225/32/16 18/31/16 155/34/17 472/33/17
f 326/278/15 473/29/15 225/32/16 81/279/16
f 75/303/14 219/28/14 473/29/15 326/278/15
f 219/28/14 16/27/14 152/30/15 473/29/15
f 332/302/13 474/25/13 219/28/14 75/303/14
f 69/327/12 213/24/12 474/25/13 332/302/13
f 213/24/12 14/23/12 149/26/13 474/25/13
f 338/326/11 475/21/11 213/24/12 69/327/12
f 63/462/10 207/494/10 475/21/11 338/326/11
f 207/494/10 12/495/10 146/22/11 475/21/11
f 344/350/9 476/17/9 207/20/10 63/351/10
f 57/375/8 201/16/8 476/17/9 344/350/9
f 201/16/8 10/15/8 143/18/9 476/17/9
f 350/374/7 477/13/7 201/16/8 57/375/8
f 51/399/6 195/12/6 477/13/7 350/374/7
f 195/12/6 8/11/6 140/14/7 477/13/7
f 356/398/5 478/9/5 195/12/6 51/399/6
f 45/423/4 189/8/4 478/9/5 356/398/5
f 189/8/4 6/7/4 137/10/5 478/9/5
f 362/422/3 479/5/3 189/8/4 45/423/4
f 39/447/2 183/4/2 479/5/3 362/422/3
f 183/4/2 4/3/2 134/6/3 479/5/3
f 368/446/1 480/1/1 183/4/2 39/447/2
f 38/87/32 130/64/32 480/1/1 368/446/1
f 130/64/32 2/63/32 131/2/1 480/1/1
